EESchema Schematic File Version 2
LIBS:power
LIBS:device
LIBS:transistors
LIBS:conn
LIBS:linear
LIBS:regul
LIBS:74xx
LIBS:cmos4000
LIBS:adc-dac
LIBS:memory
LIBS:xilinx
LIBS:microcontrollers
LIBS:dsp
LIBS:microchip
LIBS:analog_switches
LIBS:motorola
LIBS:texas
LIBS:intel
LIBS:audio
LIBS:interface
LIBS:digital-audio
LIBS:philips
LIBS:display
LIBS:cypress
LIBS:siliconi
LIBS:opto
LIBS:atmel
LIBS:contrib
LIBS:valves
LIBS:my-misc-modules
LIBS:modular-highpass-cache
EELAYER 25 0
EELAYER END
$Descr A3 16535 11693
encoding utf-8
Sheet 1 1
Title ""
Date ""
Rev ""
Comp ""
Comment1 ""
Comment2 ""
Comment3 ""
Comment4 ""
$EndDescr
$Comp
L GND #PWR01
U 1 1 5FB277D0
P 6950 6650
F 0 "#PWR01" H 6950 6400 50  0001 C CNN
F 1 "GND" H 6950 6500 50  0000 C CNN
F 2 "" H 6950 6650 50  0000 C CNN
F 3 "" H 6950 6650 50  0000 C CNN
	1    6950 6650
	1    0    0    -1  
$EndComp
Wire Wire Line
	6950 6650 6950 6450
$Comp
L +12V #PWR02
U 1 1 5FB2787A
P 7550 6400
F 0 "#PWR02" H 7550 6250 50  0001 C CNN
F 1 "+12V" H 7550 6540 50  0000 C CNN
F 2 "" H 7550 6400 50  0000 C CNN
F 3 "" H 7550 6400 50  0000 C CNN
	1    7550 6400
	1    0    0    -1  
$EndComp
Wire Wire Line
	7450 6450 7450 6550
Wire Wire Line
	7550 6400 7550 6550
Wire Wire Line
	7350 6550 7350 6300
Wire Wire Line
	6950 6450 7450 6450
$Comp
L -12VA #PWR03
U 1 1 5FB27921
P 7350 6300
F 0 "#PWR03" H 7350 6150 50  0001 C CNN
F 1 "-12VA" H 7350 6440 50  0000 C CNN
F 2 "" H 7350 6300 50  0000 C CNN
F 3 "" H 7350 6300 50  0000 C CNN
	1    7350 6300
	1    0    0    -1  
$EndComp
$Comp
L C C5
U 1 1 5FB27408
P 9500 6600
F 0 "C5" H 9300 6700 50  0000 L CNN
F 1 "100nF" H 9300 6500 50  0000 L CNN
F 2 "Capacitors_ThroughHole:C_Rect_L7_W2_P5" H 9538 6450 50  0001 C CNN
F 3 "" H 9500 6600 50  0000 C CNN
	1    9500 6600
	1    0    0    -1  
$EndComp
$Comp
L -12VA #PWR04
U 1 1 5FB27557
P 9100 6350
F 0 "#PWR04" H 9100 6200 50  0001 C CNN
F 1 "-12VA" H 9100 6490 50  0000 C CNN
F 2 "" H 9100 6350 50  0000 C CNN
F 3 "" H 9100 6350 50  0000 C CNN
	1    9100 6350
	1    0    0    -1  
$EndComp
$Comp
L +12V #PWR05
U 1 1 5FB275E8
P 9500 6350
F 0 "#PWR05" H 9500 6200 50  0001 C CNN
F 1 "+12V" H 9500 6490 50  0000 C CNN
F 2 "" H 9500 6350 50  0000 C CNN
F 3 "" H 9500 6350 50  0000 C CNN
	1    9500 6350
	1    0    0    -1  
$EndComp
Wire Wire Line
	9500 6350 9500 6450
Wire Wire Line
	9500 6750 9500 6850
$Comp
L TL072 U1
U 1 1 5FB282FA
P 6900 4900
F 0 "U1" H 6850 5100 50  0000 L CNN
F 1 "LM4562" H 6400 4900 50  0000 L CNN
F 2 "Housings_DIP:DIP-8_W7.62mm_LongPads" H 6900 4900 50  0001 C CNN
F 3 "" H 6900 4900 50  0000 C CNN
	1    6900 4900
	1    0    0    -1  
$EndComp
$Comp
L C C1
U 1 1 5FB28301
P 5650 4800
F 0 "C1" H 5675 4900 50  0000 L CNN
F 1 "100nF" H 5550 4700 50  0000 L CNN
F 2 "myCapacitors:C_Rect_L13_W5_P10" H 5688 4650 50  0001 C CNN
F 3 "" H 5650 4800 50  0000 C CNN
	1    5650 4800
	0    1    1    0   
$EndComp
$Comp
L C C2
U 1 1 5FB28308
P 6100 4800
F 0 "C2" H 6125 4900 50  0000 L CNN
F 1 "100nF" H 6000 4700 50  0000 L CNN
F 2 "myCapacitors:C_Rect_L13_W5_P10" H 6138 4650 50  0001 C CNN
F 3 "" H 6100 4800 50  0000 C CNN
	1    6100 4800
	0    1    1    0   
$EndComp
$Comp
L R R1
U 1 1 5FB2830F
P 6350 5150
F 0 "R1" V 6430 5150 50  0000 C CNN
F 1 "10K" V 6350 5150 50  0000 C CNN
F 2 "Resistors_ThroughHole:Resistor_Horizontal_RM10mm" V 6280 5150 50  0001 C CNN
F 3 "" H 6350 5150 50  0000 C CNN
	1    6350 5150
	1    0    0    -1  
$EndComp
$Comp
L C C3
U 1 1 5FB28316
P 7550 4800
F 0 "C3" H 7575 4900 50  0000 L CNN
F 1 "100nF" H 7450 4700 50  0000 L CNN
F 2 "myCapacitors:C_Rect_L13_W5_P10" H 7588 4650 50  0001 C CNN
F 3 "" H 7550 4800 50  0000 C CNN
	1    7550 4800
	0    1    1    0   
$EndComp
$Comp
L C C4
U 1 1 5FB2831D
P 8050 4800
F 0 "C4" H 8075 4900 50  0000 L CNN
F 1 "100nF" H 7950 4700 50  0000 L CNN
F 2 "myCapacitors:C_Rect_L13_W5_P10" H 8088 4650 50  0001 C CNN
F 3 "" H 8050 4800 50  0000 C CNN
	1    8050 4800
	0    -1   -1   0   
$EndComp
$Comp
L R R4
U 1 1 5FB28324
P 8300 5150
F 0 "R4" V 8380 5150 50  0000 C CNN
F 1 "10K" V 8300 5150 50  0000 C CNN
F 2 "Resistors_ThroughHole:Resistor_Horizontal_RM10mm" V 8230 5150 50  0001 C CNN
F 3 "" H 8300 5150 50  0000 C CNN
	1    8300 5150
	1    0    0    -1  
$EndComp
$Comp
L TL072 U1
U 2 1 5FB2832B
P 8850 4900
F 0 "U1" H 8800 5100 50  0000 L CNN
F 1 "LM4562" H 8350 4900 50  0000 L CNN
F 2 "Housings_DIP:DIP-8_W7.62mm_LongPads" H 8850 4900 50  0001 C CNN
F 3 "" H 8850 4900 50  0000 C CNN
	2    8850 4900
	1    0    0    -1  
$EndComp
$Comp
L R R7
U 1 1 5FB28332
P 9500 4900
F 0 "R7" V 9580 4900 50  0000 C CNN
F 1 "100" V 9500 4900 50  0000 C CNN
F 2 "Resistors_ThroughHole:Resistor_Horizontal_RM10mm" V 9430 4900 50  0001 C CNN
F 3 "" H 9500 4900 50  0000 C CNN
	1    9500 4900
	0    1    1    0   
$EndComp
$Comp
L GND #PWR06
U 1 1 5FB28339
P 8300 5800
F 0 "#PWR06" H 8300 5550 50  0001 C CNN
F 1 "GND" H 8300 5650 50  0000 C CNN
F 2 "" H 8300 5800 50  0000 C CNN
F 3 "" H 8300 5800 50  0000 C CNN
	1    8300 5800
	1    0    0    -1  
$EndComp
$Comp
L R R2
U 1 1 5FB2833F
P 6350 5550
F 0 "R2" V 6430 5550 50  0000 C CNN
F 1 "10K" V 6350 5550 50  0000 C CNN
F 2 "Resistors_ThroughHole:Resistor_Horizontal_RM10mm" V 6280 5550 50  0001 C CNN
F 3 "" H 6350 5550 50  0000 C CNN
	1    6350 5550
	1    0    0    -1  
$EndComp
$Comp
L R R5
U 1 1 5FB28346
P 8300 5550
F 0 "R5" V 8380 5550 50  0000 C CNN
F 1 "10K" V 8300 5550 50  0000 C CNN
F 2 "Resistors_ThroughHole:Resistor_Horizontal_RM10mm" V 8230 5550 50  0001 C CNN
F 3 "" H 8300 5550 50  0000 C CNN
	1    8300 5550
	1    0    0    -1  
$EndComp
$Comp
L R R3
U 1 1 5FB2834D
P 6600 4300
F 0 "R3" V 6680 4300 50  0000 C CNN
F 1 "10K" V 6600 4300 50  0000 C CNN
F 2 "Resistors_ThroughHole:Resistor_Horizontal_RM10mm" V 6530 4300 50  0001 C CNN
F 3 "" H 6600 4300 50  0000 C CNN
	1    6600 4300
	0    1    1    0   
$EndComp
$Comp
L R R6
U 1 1 5FB28354
P 8550 4300
F 0 "R6" V 8630 4300 50  0000 C CNN
F 1 "10K" V 8550 4300 50  0000 C CNN
F 2 "Resistors_ThroughHole:Resistor_Horizontal_RM10mm" V 8480 4300 50  0001 C CNN
F 3 "" H 8550 4300 50  0000 C CNN
	1    8550 4300
	0    1    1    0   
$EndComp
$Comp
L GND #PWR07
U 1 1 5FB2835B
P 6350 5800
F 0 "#PWR07" H 6350 5550 50  0001 C CNN
F 1 "GND" H 6350 5650 50  0000 C CNN
F 2 "" H 6350 5800 50  0000 C CNN
F 3 "" H 6350 5800 50  0000 C CNN
	1    6350 5800
	1    0    0    -1  
$EndComp
$Comp
L +12V #PWR08
U 1 1 5FB2836F
P 6800 4600
F 0 "#PWR08" H 6800 4450 50  0001 C CNN
F 1 "+12V" H 6800 4740 50  0000 C CNN
F 2 "" H 6800 4600 50  0000 C CNN
F 3 "" H 6800 4600 50  0000 C CNN
	1    6800 4600
	1    0    0    -1  
$EndComp
$Comp
L -12VA #PWR09
U 1 1 5FB28375
P 6800 5200
F 0 "#PWR09" H 6800 5050 50  0001 C CNN
F 1 "-12VA" H 6800 5340 50  0000 C CNN
F 2 "" H 6800 5200 50  0000 C CNN
F 3 "" H 6800 5200 50  0000 C CNN
	1    6800 5200
	-1   0    0    1   
$EndComp
$Comp
L -12VA #PWR010
U 1 1 5FB2837B
P 8750 5200
F 0 "#PWR010" H 8750 5050 50  0001 C CNN
F 1 "-12VA" H 8750 5340 50  0000 C CNN
F 2 "" H 8750 5200 50  0000 C CNN
F 3 "" H 8750 5200 50  0000 C CNN
	1    8750 5200
	-1   0    0    1   
$EndComp
$Comp
L +12V #PWR011
U 1 1 5FB28381
P 8750 4600
F 0 "#PWR011" H 8750 4450 50  0001 C CNN
F 1 "+12V" H 8750 4740 50  0000 C CNN
F 2 "" H 8750 4600 50  0000 C CNN
F 3 "" H 8750 4600 50  0000 C CNN
	1    8750 4600
	1    0    0    -1  
$EndComp
Wire Wire Line
	6350 5800 6350 5700
Connection ~ 7300 4900
Wire Wire Line
	6500 5000 6600 5000
Wire Wire Line
	6500 5400 6500 5000
Wire Wire Line
	7300 5400 6500 5400
Wire Wire Line
	7300 4300 7300 5400
Connection ~ 6350 4800
Wire Wire Line
	6250 4800 6600 4800
Connection ~ 5850 4800
Wire Wire Line
	5800 4800 5950 4800
Connection ~ 9250 4900
Wire Wire Line
	8450 5000 8550 5000
Wire Wire Line
	8450 5400 8450 5000
Wire Wire Line
	9250 5400 8450 5400
Wire Wire Line
	9150 4900 9350 4900
Wire Wire Line
	9250 4300 9250 5400
Connection ~ 8300 4800
Wire Wire Line
	8300 4800 8300 5000
Wire Wire Line
	8200 4800 8550 4800
Connection ~ 7800 4800
Wire Wire Line
	7700 4800 7900 4800
Wire Wire Line
	8300 5300 8300 5400
Wire Wire Line
	6350 5300 6350 5400
Wire Wire Line
	5850 4300 6450 4300
Wire Wire Line
	6750 4300 7300 4300
Wire Wire Line
	7800 4300 8400 4300
Wire Wire Line
	8700 4300 9250 4300
Wire Wire Line
	5850 4300 5850 4800
Wire Wire Line
	6350 4800 6350 5000
Wire Wire Line
	7800 4300 7800 4800
Wire Wire Line
	8300 5700 8300 5800
Wire Wire Line
	7400 4800 7300 4800
Connection ~ 7300 4800
Wire Wire Line
	7300 4900 7200 4900
Wire Wire Line
	5300 4800 5500 4800
Text Notes 5400 6600 0    60   ~ 0
FC=93.5Hz, R=12K, C=100nF\nFC=112Hz, R=10K, C=100nF\nFc=510Hz, R=10K, C=22nF\nFc=5115Hz, R=10K, C=2.2nF
Wire Wire Line
	9650 4900 9950 4900
$Comp
L C C6
U 1 1 600EAC0F
P 9100 6600
F 0 "C6" H 8900 6700 50  0000 L CNN
F 1 "100nF" H 8900 6500 50  0000 L CNN
F 2 "Capacitors_ThroughHole:C_Rect_L7_W2_P5" H 9138 6450 50  0001 C CNN
F 3 "" H 9100 6600 50  0000 C CNN
	1    9100 6600
	1    0    0    -1  
$EndComp
Wire Wire Line
	9100 6450 9100 6350
$Comp
L GND #PWR012
U 1 1 600EAD0C
P 9500 6850
F 0 "#PWR012" H 9500 6600 50  0001 C CNN
F 1 "GND" H 9500 6700 50  0000 C CNN
F 2 "" H 9500 6850 50  0000 C CNN
F 3 "" H 9500 6850 50  0000 C CNN
	1    9500 6850
	1    0    0    -1  
$EndComp
$Comp
L GND #PWR013
U 1 1 600EAD47
P 9100 6850
F 0 "#PWR013" H 9100 6600 50  0001 C CNN
F 1 "GND" H 9100 6700 50  0000 C CNN
F 2 "" H 9100 6850 50  0000 C CNN
F 3 "" H 9100 6850 50  0000 C CNN
	1    9100 6850
	1    0    0    -1  
$EndComp
Wire Wire Line
	9100 6850 9100 6750
$Comp
L CP C8
U 1 1 600EB336
P 8450 6600
F 0 "C8" H 8350 6750 50  0000 L CNN
F 1 "10µF" H 8350 6500 50  0000 L CNN
F 2 "Capacitors_ThroughHole:C_Radial_D5_L11_P2" H 8488 6450 50  0001 C CNN
F 3 "" H 8450 6600 50  0000 C CNN
	1    8450 6600
	-1   0    0    1   
$EndComp
$Comp
L CP C7
U 1 1 600EB410
P 8200 6600
F 0 "C7" H 8225 6700 50  0000 L CNN
F 1 "10µF" H 8225 6500 50  0000 L CNN
F 2 "Capacitors_ThroughHole:C_Radial_D5_L11_P2" H 8238 6450 50  0001 C CNN
F 3 "" H 8200 6600 50  0000 C CNN
	1    8200 6600
	1    0    0    -1  
$EndComp
$Comp
L -12VA #PWR014
U 1 1 600EB4D0
P 8450 6350
F 0 "#PWR014" H 8450 6200 50  0001 C CNN
F 1 "-12VA" H 8450 6490 50  0000 C CNN
F 2 "" H 8450 6350 50  0000 C CNN
F 3 "" H 8450 6350 50  0000 C CNN
	1    8450 6350
	1    0    0    -1  
$EndComp
Wire Wire Line
	8450 6350 8450 6450
$Comp
L GND #PWR015
U 1 1 600EB56B
P 8450 6850
F 0 "#PWR015" H 8450 6600 50  0001 C CNN
F 1 "GND" H 8450 6700 50  0000 C CNN
F 2 "" H 8450 6850 50  0000 C CNN
F 3 "" H 8450 6850 50  0000 C CNN
	1    8450 6850
	1    0    0    -1  
$EndComp
Wire Wire Line
	8450 6850 8450 6750
$Comp
L GND #PWR016
U 1 1 600EB5F4
P 8200 6850
F 0 "#PWR016" H 8200 6600 50  0001 C CNN
F 1 "GND" H 8200 6700 50  0000 C CNN
F 2 "" H 8200 6850 50  0000 C CNN
F 3 "" H 8200 6850 50  0000 C CNN
	1    8200 6850
	1    0    0    -1  
$EndComp
Wire Wire Line
	8200 6850 8200 6750
$Comp
L +12V #PWR017
U 1 1 600EB67E
P 8200 6350
F 0 "#PWR017" H 8200 6200 50  0001 C CNN
F 1 "+12V" H 8200 6490 50  0000 C CNN
F 2 "" H 8200 6350 50  0000 C CNN
F 3 "" H 8200 6350 50  0000 C CNN
	1    8200 6350
	1    0    0    -1  
$EndComp
Wire Wire Line
	8200 6350 8200 6450
$Comp
L -12VA #PWR018
U 1 1 605C7954
P 9750 6350
F 0 "#PWR018" H 9750 6200 50  0001 C CNN
F 1 "-12VA" H 9750 6490 50  0000 C CNN
F 2 "" H 9750 6350 50  0000 C CNN
F 3 "" H 9750 6350 50  0000 C CNN
	1    9750 6350
	1    0    0    -1  
$EndComp
$Comp
L C C14
U 1 1 605C795A
P 9750 6600
F 0 "C14" H 9550 6700 50  0000 L CNN
F 1 "100nF" H 9550 6500 50  0000 L CNN
F 2 "Capacitors_ThroughHole:C_Rect_L7_W2_P5" H 9788 6450 50  0001 C CNN
F 3 "" H 9750 6600 50  0000 C CNN
	1    9750 6600
	1    0    0    -1  
$EndComp
Wire Wire Line
	9750 6450 9750 6350
$Comp
L GND #PWR019
U 1 1 605C7961
P 9750 6850
F 0 "#PWR019" H 9750 6600 50  0001 C CNN
F 1 "GND" H 9750 6700 50  0000 C CNN
F 2 "" H 9750 6850 50  0000 C CNN
F 3 "" H 9750 6850 50  0000 C CNN
	1    9750 6850
	1    0    0    -1  
$EndComp
Wire Wire Line
	9750 6850 9750 6750
$Comp
L C C13
U 1 1 605C79CC
P 8850 6600
F 0 "C13" H 8650 6700 50  0000 L CNN
F 1 "100nF" H 8650 6500 50  0000 L CNN
F 2 "Capacitors_ThroughHole:C_Rect_L7_W2_P5" H 8888 6450 50  0001 C CNN
F 3 "" H 8850 6600 50  0000 C CNN
	1    8850 6600
	1    0    0    -1  
$EndComp
$Comp
L +12V #PWR020
U 1 1 605C79D2
P 8850 6350
F 0 "#PWR020" H 8850 6200 50  0001 C CNN
F 1 "+12V" H 8850 6490 50  0000 C CNN
F 2 "" H 8850 6350 50  0000 C CNN
F 3 "" H 8850 6350 50  0000 C CNN
	1    8850 6350
	1    0    0    -1  
$EndComp
Wire Wire Line
	8850 6350 8850 6450
Wire Wire Line
	8850 6750 8850 6850
$Comp
L GND #PWR021
U 1 1 605C79DA
P 8850 6850
F 0 "#PWR021" H 8850 6600 50  0001 C CNN
F 1 "GND" H 8850 6700 50  0000 C CNN
F 2 "" H 8850 6850 50  0000 C CNN
F 3 "" H 8850 6850 50  0000 C CNN
	1    8850 6850
	1    0    0    -1  
$EndComp
$Comp
L TL072 U2
U 1 1 605C7E3F
P 6900 3100
F 0 "U2" H 6850 3300 50  0000 L CNN
F 1 "LM4562" H 6400 3100 50  0000 L CNN
F 2 "Housings_DIP:DIP-8_W7.62mm_LongPads" H 6900 3100 50  0001 C CNN
F 3 "" H 6900 3100 50  0000 C CNN
	1    6900 3100
	1    0    0    -1  
$EndComp
$Comp
L C C9
U 1 1 605C7E45
P 5650 3000
F 0 "C9" H 5675 3100 50  0000 L CNN
F 1 "100nF" H 5550 2900 50  0000 L CNN
F 2 "myCapacitors:C_Rect_L13_W5_P10" H 5688 2850 50  0001 C CNN
F 3 "" H 5650 3000 50  0000 C CNN
	1    5650 3000
	0    1    1    0   
$EndComp
$Comp
L C C10
U 1 1 605C7E4B
P 6100 3000
F 0 "C10" H 6125 3100 50  0000 L CNN
F 1 "100nF" H 6000 2900 50  0000 L CNN
F 2 "myCapacitors:C_Rect_L13_W5_P10" H 6138 2850 50  0001 C CNN
F 3 "" H 6100 3000 50  0000 C CNN
	1    6100 3000
	0    1    1    0   
$EndComp
$Comp
L R R8
U 1 1 605C7E51
P 6350 3350
F 0 "R8" V 6430 3350 50  0000 C CNN
F 1 "10K" V 6350 3350 50  0000 C CNN
F 2 "Resistors_ThroughHole:Resistor_Horizontal_RM10mm" V 6280 3350 50  0001 C CNN
F 3 "" H 6350 3350 50  0000 C CNN
	1    6350 3350
	1    0    0    -1  
$EndComp
$Comp
L C C11
U 1 1 605C7E57
P 7550 3000
F 0 "C11" H 7575 3100 50  0000 L CNN
F 1 "100nF" H 7450 2900 50  0000 L CNN
F 2 "myCapacitors:C_Rect_L13_W5_P10" H 7588 2850 50  0001 C CNN
F 3 "" H 7550 3000 50  0000 C CNN
	1    7550 3000
	0    1    1    0   
$EndComp
$Comp
L C C12
U 1 1 605C7E5D
P 8050 3000
F 0 "C12" H 8075 3100 50  0000 L CNN
F 1 "100nF" H 7950 2900 50  0000 L CNN
F 2 "myCapacitors:C_Rect_L13_W5_P10" H 8088 2850 50  0001 C CNN
F 3 "" H 8050 3000 50  0000 C CNN
	1    8050 3000
	0    -1   -1   0   
$EndComp
$Comp
L R R11
U 1 1 605C7E63
P 8300 3350
F 0 "R11" V 8380 3350 50  0000 C CNN
F 1 "10K" V 8300 3350 50  0000 C CNN
F 2 "Resistors_ThroughHole:Resistor_Horizontal_RM10mm" V 8230 3350 50  0001 C CNN
F 3 "" H 8300 3350 50  0000 C CNN
	1    8300 3350
	1    0    0    -1  
$EndComp
$Comp
L TL072 U2
U 2 1 605C7E69
P 8850 3100
F 0 "U2" H 8800 3300 50  0000 L CNN
F 1 "LM4562" H 8350 3100 50  0000 L CNN
F 2 "Housings_DIP:DIP-8_W7.62mm_LongPads" H 8850 3100 50  0001 C CNN
F 3 "" H 8850 3100 50  0000 C CNN
	2    8850 3100
	1    0    0    -1  
$EndComp
$Comp
L R R14
U 1 1 605C7E6F
P 9500 3100
F 0 "R14" V 9580 3100 50  0000 C CNN
F 1 "100" V 9500 3100 50  0000 C CNN
F 2 "Resistors_ThroughHole:Resistor_Horizontal_RM10mm" V 9430 3100 50  0001 C CNN
F 3 "" H 9500 3100 50  0000 C CNN
	1    9500 3100
	0    1    1    0   
$EndComp
$Comp
L GND #PWR022
U 1 1 605C7E75
P 8300 4000
F 0 "#PWR022" H 8300 3750 50  0001 C CNN
F 1 "GND" H 8300 3850 50  0000 C CNN
F 2 "" H 8300 4000 50  0000 C CNN
F 3 "" H 8300 4000 50  0000 C CNN
	1    8300 4000
	1    0    0    -1  
$EndComp
$Comp
L R R9
U 1 1 605C7E7B
P 6350 3750
F 0 "R9" V 6430 3750 50  0000 C CNN
F 1 "10K" V 6350 3750 50  0000 C CNN
F 2 "Resistors_ThroughHole:Resistor_Horizontal_RM10mm" V 6280 3750 50  0001 C CNN
F 3 "" H 6350 3750 50  0000 C CNN
	1    6350 3750
	1    0    0    -1  
$EndComp
$Comp
L R R12
U 1 1 605C7E81
P 8300 3750
F 0 "R12" V 8380 3750 50  0000 C CNN
F 1 "10K" V 8300 3750 50  0000 C CNN
F 2 "Resistors_ThroughHole:Resistor_Horizontal_RM10mm" V 8230 3750 50  0001 C CNN
F 3 "" H 8300 3750 50  0000 C CNN
	1    8300 3750
	1    0    0    -1  
$EndComp
$Comp
L R R10
U 1 1 605C7E87
P 6600 2500
F 0 "R10" V 6680 2500 50  0000 C CNN
F 1 "10K" V 6600 2500 50  0000 C CNN
F 2 "Resistors_ThroughHole:Resistor_Horizontal_RM10mm" V 6530 2500 50  0001 C CNN
F 3 "" H 6600 2500 50  0000 C CNN
	1    6600 2500
	0    1    1    0   
$EndComp
$Comp
L R R13
U 1 1 605C7E8D
P 8550 2500
F 0 "R13" V 8630 2500 50  0000 C CNN
F 1 "10K" V 8550 2500 50  0000 C CNN
F 2 "Resistors_ThroughHole:Resistor_Horizontal_RM10mm" V 8480 2500 50  0001 C CNN
F 3 "" H 8550 2500 50  0000 C CNN
	1    8550 2500
	0    1    1    0   
$EndComp
$Comp
L GND #PWR023
U 1 1 605C7E93
P 6350 4000
F 0 "#PWR023" H 6350 3750 50  0001 C CNN
F 1 "GND" H 6350 3850 50  0000 C CNN
F 2 "" H 6350 4000 50  0000 C CNN
F 3 "" H 6350 4000 50  0000 C CNN
	1    6350 4000
	1    0    0    -1  
$EndComp
$Comp
L +12V #PWR024
U 1 1 605C7E99
P 6800 2800
F 0 "#PWR024" H 6800 2650 50  0001 C CNN
F 1 "+12V" H 6800 2940 50  0000 C CNN
F 2 "" H 6800 2800 50  0000 C CNN
F 3 "" H 6800 2800 50  0000 C CNN
	1    6800 2800
	1    0    0    -1  
$EndComp
$Comp
L -12VA #PWR025
U 1 1 605C7E9F
P 6800 3400
F 0 "#PWR025" H 6800 3250 50  0001 C CNN
F 1 "-12VA" H 6800 3540 50  0000 C CNN
F 2 "" H 6800 3400 50  0000 C CNN
F 3 "" H 6800 3400 50  0000 C CNN
	1    6800 3400
	-1   0    0    1   
$EndComp
$Comp
L -12VA #PWR026
U 1 1 605C7EA5
P 8750 3400
F 0 "#PWR026" H 8750 3250 50  0001 C CNN
F 1 "-12VA" H 8750 3540 50  0000 C CNN
F 2 "" H 8750 3400 50  0000 C CNN
F 3 "" H 8750 3400 50  0000 C CNN
	1    8750 3400
	-1   0    0    1   
$EndComp
$Comp
L +12V #PWR027
U 1 1 605C7EAB
P 8750 2800
F 0 "#PWR027" H 8750 2650 50  0001 C CNN
F 1 "+12V" H 8750 2940 50  0000 C CNN
F 2 "" H 8750 2800 50  0000 C CNN
F 3 "" H 8750 2800 50  0000 C CNN
	1    8750 2800
	1    0    0    -1  
$EndComp
Wire Wire Line
	6350 4000 6350 3900
Connection ~ 7300 3100
Wire Wire Line
	6500 3200 6600 3200
Wire Wire Line
	6500 3600 6500 3200
Wire Wire Line
	7300 3600 6500 3600
Wire Wire Line
	7300 2500 7300 3600
Connection ~ 6350 3000
Wire Wire Line
	6250 3000 6600 3000
Connection ~ 5850 3000
Wire Wire Line
	5800 3000 5950 3000
Connection ~ 9250 3100
Wire Wire Line
	8450 3200 8550 3200
Wire Wire Line
	8450 3600 8450 3200
Wire Wire Line
	9250 3600 8450 3600
Wire Wire Line
	9150 3100 9350 3100
Wire Wire Line
	9250 2500 9250 3600
Connection ~ 8300 3000
Wire Wire Line
	8300 3000 8300 3200
Wire Wire Line
	8200 3000 8550 3000
Connection ~ 7800 3000
Wire Wire Line
	7700 3000 7900 3000
Wire Wire Line
	8300 3500 8300 3600
Wire Wire Line
	6350 3500 6350 3600
Wire Wire Line
	5850 2500 6450 2500
Wire Wire Line
	6750 2500 7300 2500
Wire Wire Line
	7800 2500 8400 2500
Wire Wire Line
	8700 2500 9250 2500
Wire Wire Line
	5850 2500 5850 3000
Wire Wire Line
	6350 3000 6350 3200
Wire Wire Line
	7800 2500 7800 3000
Wire Wire Line
	8300 3900 8300 4000
Wire Wire Line
	7400 3000 7300 3000
Connection ~ 7300 3000
Wire Wire Line
	7300 3100 7200 3100
Wire Wire Line
	5300 3000 5500 3000
Wire Wire Line
	9650 3100 9950 3100
$Comp
L CONN_01X03 P2
U 1 1 605DBF17
P 7450 6750
F 0 "P2" H 7450 6950 50  0000 C CNN
F 1 "POWER" V 7550 6750 50  0000 C CNN
F 2 "Pin_Headers:Pin_Header_Angled_1x03" H 7450 6750 50  0001 C CNN
F 3 "" H 7450 6750 50  0000 C CNN
	1    7450 6750
	0    1    1    0   
$EndComp
$Comp
L CONN_01X02 P1
U 1 1 605DC260
P 5000 3850
F 0 "P1" H 5000 4000 50  0000 C CNN
F 1 "INPUT" V 5100 3850 50  0000 C CNN
F 2 "Pin_Headers:Pin_Header_Angled_1x02" H 5000 3850 50  0001 C CNN
F 3 "" H 5000 3850 50  0000 C CNN
	1    5000 3850
	-1   0    0    1   
$EndComp
$Comp
L CONN_01X02 P3
U 1 1 605DC390
P 10250 3850
F 0 "P3" H 10250 4000 50  0000 C CNN
F 1 "OUTPUT" V 10350 3850 50  0000 C CNN
F 2 "Pin_Headers:Pin_Header_Angled_1x02" H 10250 3850 50  0001 C CNN
F 3 "" H 10250 3850 50  0000 C CNN
	1    10250 3850
	1    0    0    -1  
$EndComp
Wire Wire Line
	9950 3800 10050 3800
Wire Wire Line
	9950 3000 9950 3800
Wire Wire Line
	10050 3900 9950 3900
Wire Wire Line
	9950 3900 9950 5000
Wire Wire Line
	5300 3800 5200 3800
Wire Wire Line
	5300 2900 5300 3800
Wire Wire Line
	5200 3900 5300 3900
Wire Wire Line
	5300 3900 5300 4900
Text GLabel 5300 2900 1    60   Input ~ 0
LEFT-IN
Text GLabel 5300 4900 3    60   Input ~ 0
RIGHT-IN
Text GLabel 9950 5000 3    60   Input ~ 0
RIGHT-OUT
Connection ~ 9950 4900
Connection ~ 5300 4800
Connection ~ 5300 3000
Text GLabel 9950 3000 1    60   Input ~ 0
LEFT-OUT
Connection ~ 9950 3100
$EndSCHEMATC
