EESchema Schematic File Version 2
LIBS:power
LIBS:device
LIBS:switches
LIBS:relays
LIBS:motors
LIBS:transistors
LIBS:conn
LIBS:linear
LIBS:regul
LIBS:74xx
LIBS:cmos4000
LIBS:adc-dac
LIBS:memory
LIBS:xilinx
LIBS:microcontrollers
LIBS:dsp
LIBS:microchip
LIBS:analog_switches
LIBS:motorola
LIBS:texas
LIBS:intel
LIBS:audio
LIBS:interface
LIBS:digital-audio
LIBS:philips
LIBS:display
LIBS:cypress
LIBS:siliconi
LIBS:opto
LIBS:atmel
LIBS:contrib
LIBS:valves
LIBS:my-misc-modules
LIBS:input-buffer-cache
EELAYER 25 0
EELAYER END
$Descr A4 8268 11693 portrait
encoding utf-8
Sheet 1 1
Title ""
Date ""
Rev ""
Comp ""
Comment1 ""
Comment2 ""
Comment3 ""
Comment4 ""
$EndDescr
$Comp
L TL072 U1
U 1 1 6139D9EC
P 4900 3500
F 0 "U1" H 4850 3700 50  0000 L CNN
F 1 "LM4562" H 4850 3250 50  0000 L CNN
F 2 "Housings_DIP:DIP-8_W7.62mm_LongPads" H 4900 3500 50  0001 C CNN
F 3 "" H 4900 3500 50  0000 C CNN
	1    4900 3500
	1    0    0    -1  
$EndComp
$Comp
L R R1
U 1 1 6139D9ED
P 4100 3400
F 0 "R1" V 4180 3400 50  0000 C CNN
F 1 "1K" V 4100 3400 50  0000 C CNN
F 2 "Resistors_ThroughHole:R_Axial_DIN0207_L6.3mm_D2.5mm_P10.16mm_Horizontal" V 4030 3400 50  0001 C CNN
F 3 "" H 4100 3400 50  0000 C CNN
	1    4100 3400
	0    1    1    0   
$EndComp
$Comp
L R R3
U 1 1 6139D9EE
P 4350 3650
F 0 "R3" V 4430 3650 50  0000 C CNN
F 1 "47K" V 4350 3650 50  0000 C CNN
F 2 "Resistors_ThroughHole:R_Axial_DIN0207_L6.3mm_D2.5mm_P10.16mm_Horizontal" V 4280 3650 50  0001 C CNN
F 3 "" H 4350 3650 50  0000 C CNN
	1    4350 3650
	1    0    0    -1  
$EndComp
$Comp
L GND #PWR01
U 1 1 6139D9EF
P 4350 3900
F 0 "#PWR01" H 4350 3650 50  0001 C CNN
F 1 "GND" H 4350 3750 50  0000 C CNN
F 2 "" H 4350 3900 50  0000 C CNN
F 3 "" H 4350 3900 50  0000 C CNN
	1    4350 3900
	1    0    0    -1  
$EndComp
$Comp
L +12V #PWR02
U 1 1 6139D9F0
P 4800 3150
F 0 "#PWR02" H 4800 3000 50  0001 C CNN
F 1 "+12V" H 4800 3290 50  0000 C CNN
F 2 "" H 4800 3150 50  0000 C CNN
F 3 "" H 4800 3150 50  0000 C CNN
	1    4800 3150
	1    0    0    -1  
$EndComp
$Comp
L -12VA #PWR03
U 1 1 6139D9F1
P 4800 3800
F 0 "#PWR03" H 4800 3650 50  0001 C CNN
F 1 "-12VA" H 4800 3940 50  0000 C CNN
F 2 "" H 4800 3800 50  0000 C CNN
F 3 "" H 4800 3800 50  0000 C CNN
	1    4800 3800
	-1   0    0    1   
$EndComp
$Comp
L TL072 U1
U 2 1 6139D9F2
P 4900 5050
F 0 "U1" H 4850 5250 50  0000 L CNN
F 1 "LM4562" H 4850 4800 50  0000 L CNN
F 2 "Housings_DIP:DIP-8_W7.62mm_LongPads" H 4900 5050 50  0001 C CNN
F 3 "" H 4900 5050 50  0000 C CNN
	2    4900 5050
	1    0    0    -1  
$EndComp
$Comp
L R R2
U 1 1 6139D9F3
P 4100 4950
F 0 "R2" V 4180 4950 50  0000 C CNN
F 1 "1K" V 4100 4950 50  0000 C CNN
F 2 "Resistors_ThroughHole:R_Axial_DIN0207_L6.3mm_D2.5mm_P10.16mm_Horizontal" V 4030 4950 50  0001 C CNN
F 3 "" H 4100 4950 50  0000 C CNN
	1    4100 4950
	0    1    1    0   
$EndComp
$Comp
L R R4
U 1 1 6139D9F4
P 4350 5200
F 0 "R4" V 4430 5200 50  0000 C CNN
F 1 "47K" V 4350 5200 50  0000 C CNN
F 2 "Resistors_ThroughHole:R_Axial_DIN0207_L6.3mm_D2.5mm_P10.16mm_Horizontal" V 4280 5200 50  0001 C CNN
F 3 "" H 4350 5200 50  0000 C CNN
	1    4350 5200
	1    0    0    -1  
$EndComp
$Comp
L GND #PWR04
U 1 1 6139D9F5
P 4350 5450
F 0 "#PWR04" H 4350 5200 50  0001 C CNN
F 1 "GND" H 4350 5300 50  0000 C CNN
F 2 "" H 4350 5450 50  0000 C CNN
F 3 "" H 4350 5450 50  0000 C CNN
	1    4350 5450
	1    0    0    -1  
$EndComp
$Comp
L +12V #PWR05
U 1 1 6139D9F7
P 4800 4700
F 0 "#PWR05" H 4800 4550 50  0001 C CNN
F 1 "+12V" H 4800 4840 50  0000 C CNN
F 2 "" H 4800 4700 50  0000 C CNN
F 3 "" H 4800 4700 50  0000 C CNN
	1    4800 4700
	1    0    0    -1  
$EndComp
$Comp
L -12VA #PWR06
U 1 1 6139D9F8
P 4800 5350
F 0 "#PWR06" H 4800 5200 50  0001 C CNN
F 1 "-12VA" H 4800 5490 50  0000 C CNN
F 2 "" H 4800 5350 50  0000 C CNN
F 3 "" H 4800 5350 50  0000 C CNN
	1    4800 5350
	-1   0    0    1   
$EndComp
Text GLabel 5300 3400 1    60   Input ~ 0
LEFT
Text GLabel 5300 4950 1    60   Input ~ 0
RIGHT
Wire Wire Line
	4250 3400 4600 3400
Wire Wire Line
	4350 3500 4350 3400
Connection ~ 4350 3400
Wire Wire Line
	4350 3800 4350 3900
Wire Wire Line
	4600 3600 4500 3600
Wire Wire Line
	4500 3600 4500 4000
Wire Wire Line
	4500 4000 5300 4000
Wire Wire Line
	4800 3150 4800 3200
Connection ~ 5300 3500
Wire Wire Line
	5300 4000 5300 3400
Wire Wire Line
	4250 4950 4600 4950
Wire Wire Line
	4350 5050 4350 4950
Connection ~ 4350 4950
Wire Wire Line
	4350 5350 4350 5450
Wire Wire Line
	4600 5150 4500 5150
Wire Wire Line
	4500 5150 4500 5550
Wire Wire Line
	4500 5550 5300 5550
Wire Wire Line
	4800 4700 4800 4750
Connection ~ 5300 5050
Wire Wire Line
	5300 5550 5300 4950
Wire Wire Line
	3500 4300 3600 4300
Wire Wire Line
	3600 4300 3600 4950
Wire Wire Line
	3600 4950 3950 4950
Wire Wire Line
	3950 3400 3600 3400
Wire Wire Line
	3600 3400 3600 4000
Wire Wire Line
	3600 4000 3500 4000
$Comp
L CONN_01X02 P1
U 1 1 6139E595
P 2600 4150
F 0 "P1" H 2600 4300 50  0000 C CNN
F 1 "INPUT" V 2700 4150 50  0000 C CNN
F 2 "Pin_Headers:Pin_Header_Angled_1x02" H 2600 4150 50  0001 C CNN
F 3 "" H 2600 4150 50  0000 C CNN
	1    2600 4150
	-1   0    0    -1  
$EndComp
$Comp
L CONN_01X02 P3
U 1 1 6139E946
P 5700 4150
F 0 "P3" H 5700 4300 50  0000 C CNN
F 1 "OUTPUT" V 5800 4150 50  0000 C CNN
F 2 "Pin_Headers:Pin_Header_Angled_1x02" H 5700 4150 50  0001 C CNN
F 3 "" H 5700 4150 50  0000 C CNN
	1    5700 4150
	1    0    0    1   
$EndComp
Wire Wire Line
	5200 3500 5400 3500
Wire Wire Line
	5400 3500 5400 4100
Wire Wire Line
	5400 4100 5500 4100
Wire Wire Line
	5500 4200 5400 4200
Wire Wire Line
	5400 4200 5400 5050
Wire Wire Line
	5400 5050 5200 5050
$Comp
L GND #PWR07
U 1 1 6139F1DA
P 3100 6250
F 0 "#PWR07" H 3100 6000 50  0001 C CNN
F 1 "GND" H 3100 6100 50  0000 C CNN
F 2 "" H 3100 6250 50  0000 C CNN
F 3 "" H 3100 6250 50  0000 C CNN
	1    3100 6250
	1    0    0    -1  
$EndComp
$Comp
L +12V #PWR08
U 1 1 6139F1E0
P 3700 6000
F 0 "#PWR08" H 3700 5850 50  0001 C CNN
F 1 "+12V" H 3700 6140 50  0000 C CNN
F 2 "" H 3700 6000 50  0000 C CNN
F 3 "" H 3700 6000 50  0000 C CNN
	1    3700 6000
	1    0    0    -1  
$EndComp
$Comp
L -12VA #PWR09
U 1 1 6139F1E6
P 3500 5900
F 0 "#PWR09" H 3500 5750 50  0001 C CNN
F 1 "-12VA" H 3500 6040 50  0000 C CNN
F 2 "" H 3500 5900 50  0000 C CNN
F 3 "" H 3500 5900 50  0000 C CNN
	1    3500 5900
	1    0    0    -1  
$EndComp
$Comp
L C C5
U 1 1 6139F1EC
P 5050 6200
F 0 "C5" H 4850 6300 50  0000 L CNN
F 1 "100nF" H 4850 6100 50  0000 L CNN
F 2 "Capacitors_ThroughHole:C_Rect_L7.0mm_W2.0mm_P5.00mm" H 5088 6050 50  0001 C CNN
F 3 "" H 5050 6200 50  0000 C CNN
	1    5050 6200
	1    0    0    -1  
$EndComp
$Comp
L +12V #PWR010
U 1 1 6139F1F3
P 5050 5950
F 0 "#PWR010" H 5050 5800 50  0001 C CNN
F 1 "+12V" H 5050 6090 50  0000 C CNN
F 2 "" H 5050 5950 50  0000 C CNN
F 3 "" H 5050 5950 50  0000 C CNN
	1    5050 5950
	1    0    0    -1  
$EndComp
$Comp
L C C6
U 1 1 6139F1F9
P 5300 6200
F 0 "C6" H 5100 6300 50  0000 L CNN
F 1 "100nF" H 5100 6100 50  0000 L CNN
F 2 "Capacitors_ThroughHole:C_Rect_L7.0mm_W2.0mm_P5.00mm" H 5338 6050 50  0001 C CNN
F 3 "" H 5300 6200 50  0000 C CNN
	1    5300 6200
	1    0    0    -1  
$EndComp
$Comp
L -12VA #PWR011
U 1 1 6139F200
P 5300 5950
F 0 "#PWR011" H 5300 5800 50  0001 C CNN
F 1 "-12VA" H 5300 6090 50  0000 C CNN
F 2 "" H 5300 5950 50  0000 C CNN
F 3 "" H 5300 5950 50  0000 C CNN
	1    5300 5950
	1    0    0    -1  
$EndComp
$Comp
L GND #PWR012
U 1 1 6139F206
P 5050 6450
F 0 "#PWR012" H 5050 6200 50  0001 C CNN
F 1 "GND" H 5050 6300 50  0000 C CNN
F 2 "" H 5050 6450 50  0000 C CNN
F 3 "" H 5050 6450 50  0000 C CNN
	1    5050 6450
	1    0    0    -1  
$EndComp
$Comp
L GND #PWR013
U 1 1 6139F20C
P 5300 6450
F 0 "#PWR013" H 5300 6200 50  0001 C CNN
F 1 "GND" H 5300 6300 50  0000 C CNN
F 2 "" H 5300 6450 50  0000 C CNN
F 3 "" H 5300 6450 50  0000 C CNN
	1    5300 6450
	1    0    0    -1  
$EndComp
$Comp
L CP C4
U 1 1 6139F212
P 4650 6200
F 0 "C4" H 4675 6300 50  0000 L CNN
F 1 "10µF" H 4650 6050 50  0000 L CNN
F 2 "Capacitors_ThroughHole:CP_Radial_D5.0mm_P2.00mm" H 4688 6050 50  0001 C CNN
F 3 "" H 4650 6200 50  0000 C CNN
	1    4650 6200
	1    0    0    1   
$EndComp
$Comp
L CP C3
U 1 1 6139F219
P 4400 6200
F 0 "C3" H 4425 6300 50  0000 L CNN
F 1 "10µF" H 4425 6100 50  0000 L CNN
F 2 "Capacitors_ThroughHole:CP_Radial_D5.0mm_P2.00mm" H 4438 6050 50  0001 C CNN
F 3 "" H 4400 6200 50  0000 C CNN
	1    4400 6200
	1    0    0    -1  
$EndComp
$Comp
L +12V #PWR014
U 1 1 6139F220
P 4400 5950
F 0 "#PWR014" H 4400 5800 50  0001 C CNN
F 1 "+12V" H 4400 6090 50  0000 C CNN
F 2 "" H 4400 5950 50  0000 C CNN
F 3 "" H 4400 5950 50  0000 C CNN
	1    4400 5950
	1    0    0    -1  
$EndComp
$Comp
L -12VA #PWR015
U 1 1 6139F226
P 4650 5950
F 0 "#PWR015" H 4650 5800 50  0001 C CNN
F 1 "-12VA" H 4650 6090 50  0000 C CNN
F 2 "" H 4650 5950 50  0000 C CNN
F 3 "" H 4650 5950 50  0000 C CNN
	1    4650 5950
	1    0    0    -1  
$EndComp
$Comp
L GND #PWR016
U 1 1 6139F22C
P 4400 6450
F 0 "#PWR016" H 4400 6200 50  0001 C CNN
F 1 "GND" H 4400 6300 50  0000 C CNN
F 2 "" H 4400 6450 50  0000 C CNN
F 3 "" H 4400 6450 50  0000 C CNN
	1    4400 6450
	1    0    0    -1  
$EndComp
$Comp
L GND #PWR017
U 1 1 6139F232
P 4650 6450
F 0 "#PWR017" H 4650 6200 50  0001 C CNN
F 1 "GND" H 4650 6300 50  0000 C CNN
F 2 "" H 4650 6450 50  0000 C CNN
F 3 "" H 4650 6450 50  0000 C CNN
	1    4650 6450
	1    0    0    -1  
$EndComp
Wire Wire Line
	4400 6050 4400 5950
Wire Wire Line
	4400 6450 4400 6350
Wire Wire Line
	4650 6350 4650 6450
Wire Wire Line
	4650 6050 4650 5950
Wire Wire Line
	5300 6450 5300 6350
Wire Wire Line
	5300 5950 5300 6050
Wire Wire Line
	5050 6350 5050 6450
Wire Wire Line
	5050 5950 5050 6050
Wire Wire Line
	3100 6050 3600 6050
Wire Wire Line
	3500 6150 3500 5900
Wire Wire Line
	3700 6000 3700 6150
Wire Wire Line
	3600 6050 3600 6150
Wire Wire Line
	3100 6250 3100 6050
$Comp
L CONN_01X03 P2
U 1 1 6139F26F
P 3600 6350
F 0 "P2" H 3600 6550 50  0000 C CNN
F 1 "POWER" V 3700 6350 50  0000 C CNN
F 2 "Pin_Headers:Pin_Header_Angled_1x03" H 3600 6350 50  0001 C CNN
F 3 "" H 3600 6350 50  0000 C CNN
	1    3600 6350
	0    1    1    0   
$EndComp
$Comp
L C C1
U 1 1 6139F294
P 3350 4000
F 0 "C1" V 3150 4100 50  0000 L CNN
F 1 "1µF" V 3150 3900 50  0000 L CNN
F 2 "Capacitors_THT:C_Rect_L31.5mm_W11.0mm_P27.50mm_MKS4" H 3388 3850 50  0001 C CNN
F 3 "" H 3350 4000 50  0000 C CNN
	1    3350 4000
	0    1    1    0   
$EndComp
Wire Wire Line
	2900 4100 2800 4100
Wire Wire Line
	2900 3900 2900 4100
Wire Wire Line
	2900 4000 3200 4000
$Comp
L C C2
U 1 1 6139F52E
P 3350 4300
F 0 "C2" V 3500 4400 50  0000 L CNN
F 1 "1µF" V 3500 4200 50  0000 L CNN
F 2 "Capacitors_THT:C_Rect_L31.5mm_W11.0mm_P27.50mm_MKS4" H 3388 4150 50  0001 C CNN
F 3 "" H 3350 4300 50  0000 C CNN
	1    3350 4300
	0    1    1    0   
$EndComp
Wire Wire Line
	3200 4300 2900 4300
Wire Wire Line
	2900 4200 2900 4400
Wire Wire Line
	2900 4200 2800 4200
$Comp
L Conn_01x01 J1
U 1 1 613C73BE
P 2900 3700
F 0 "J1" H 2900 3800 50  0000 C CNN
F 1 "pad" V 3000 3700 50  0000 C CNN
F 2 "Wire_Pads:SolderWirePad_single_1mmDrill" H 2900 3700 50  0001 C CNN
F 3 "" H 2900 3700 50  0001 C CNN
	1    2900 3700
	0    -1   -1   0   
$EndComp
Connection ~ 2900 4000
$Comp
L Conn_01x01 J3
U 1 1 613C7558
P 3050 3700
F 0 "J3" H 3050 3800 50  0000 C CNN
F 1 "pad" V 3150 3700 50  0000 C CNN
F 2 "Wire_Pads:SolderWirePad_single_1mmDrill" H 3050 3700 50  0001 C CNN
F 3 "" H 3050 3700 50  0001 C CNN
	1    3050 3700
	0    -1   -1   0   
$EndComp
Wire Wire Line
	3050 3900 3050 4000
Connection ~ 3050 4000
$Comp
L Conn_01x01 J4
U 1 1 613C75E7
P 3050 4600
F 0 "J4" H 3050 4700 50  0000 C CNN
F 1 "pad" V 3150 4600 50  0000 C CNN
F 2 "Wire_Pads:SolderWirePad_single_1mmDrill" H 3050 4600 50  0001 C CNN
F 3 "" H 3050 4600 50  0001 C CNN
	1    3050 4600
	0    1    1    0   
$EndComp
Wire Wire Line
	3050 4400 3050 4300
Connection ~ 3050 4300
$Comp
L Conn_01x01 J2
U 1 1 613C769E
P 2900 4600
F 0 "J2" H 2900 4700 50  0000 C CNN
F 1 "pad" V 3000 4600 50  0000 C CNN
F 2 "Wire_Pads:SolderWirePad_single_1mmDrill" H 2900 4600 50  0001 C CNN
F 3 "" H 2900 4600 50  0001 C CNN
	1    2900 4600
	0    1    1    0   
$EndComp
Connection ~ 2900 4300
$EndSCHEMATC
