EESchema Schematic File Version 2
LIBS:power
LIBS:device
LIBS:transistors
LIBS:conn
LIBS:linear
LIBS:regul
LIBS:74xx
LIBS:cmos4000
LIBS:adc-dac
LIBS:memory
LIBS:xilinx
LIBS:microcontrollers
LIBS:dsp
LIBS:microchip
LIBS:analog_switches
LIBS:motorola
LIBS:texas
LIBS:intel
LIBS:audio
LIBS:interface
LIBS:digital-audio
LIBS:philips
LIBS:display
LIBS:cypress
LIBS:siliconi
LIBS:opto
LIBS:atmel
LIBS:contrib
LIBS:valves
LIBS:modular-lowpass-cache
EELAYER 25 0
EELAYER END
$Descr A3 16535 11693
encoding utf-8
Sheet 1 1
Title ""
Date ""
Rev ""
Comp ""
Comment1 ""
Comment2 ""
Comment3 ""
Comment4 ""
$EndDescr
$Comp
L C C2
U 1 1 58326959
P 6750 4500
F 0 "C2" V 6650 4600 50  0000 L CNN
F 1 "100nF" V 6650 4250 50  0000 L CNN
F 2 "myCapacitors:C_Rect_L13_W5_P10" H 6788 4350 50  0001 C CNN
F 3 "" H 6750 4500 50  0000 C CNN
	1    6750 4500
	0    1    1    0   
$EndComp
$Comp
L R R2
U 1 1 5832695F
P 6250 5200
F 0 "R2" V 6330 5200 50  0000 C CNN
F 1 "10K" V 6250 5200 50  0000 C CNN
F 2 "Resistors_ThroughHole:Resistor_Horizontal_RM10mm" V 6180 5200 50  0001 C CNN
F 3 "" H 6250 5200 50  0000 C CNN
	1    6250 5200
	0    1    1    0   
$EndComp
$Comp
L C C3
U 1 1 58326965
P 6750 4700
F 0 "C3" V 6650 4800 50  0000 L CNN
F 1 "100nF" V 6850 4450 50  0000 L CNN
F 2 "myCapacitors:C_Rect_L13_W5_P10" H 6788 4550 50  0001 C CNN
F 3 "" H 6750 4700 50  0000 C CNN
	1    6750 4700
	0    1    1    0   
$EndComp
$Comp
L R R1
U 1 1 58326977
P 5750 5200
F 0 "R1" V 5830 5200 50  0000 C CNN
F 1 "10K" V 5750 5200 50  0000 C CNN
F 2 "Resistors_ThroughHole:Resistor_Horizontal_RM10mm" V 5680 5200 50  0001 C CNN
F 3 "" H 5750 5200 50  0000 C CNN
	1    5750 5200
	0    1    1    0   
$EndComp
$Comp
L C C5
U 1 1 5832697D
P 8650 4500
F 0 "C5" V 8550 4600 50  0000 L CNN
F 1 "100nF" V 8550 4250 50  0000 L CNN
F 2 "myCapacitors:C_Rect_L13_W5_P10" H 8688 4350 50  0001 C CNN
F 3 "" H 8650 4500 50  0000 C CNN
	1    8650 4500
	0    1    1    0   
$EndComp
$Comp
L R R4
U 1 1 58326983
P 8200 5200
F 0 "R4" V 8280 5200 50  0000 C CNN
F 1 "10K" V 8200 5200 50  0000 C CNN
F 2 "Resistors_ThroughHole:Resistor_Horizontal_RM10mm" V 8130 5200 50  0001 C CNN
F 3 "" H 8200 5200 50  0000 C CNN
	1    8200 5200
	0    1    1    0   
$EndComp
$Comp
L C C4
U 1 1 58326989
P 8450 5500
F 0 "C4" H 8250 5600 50  0000 L CNN
F 1 "100nF" H 8250 5400 50  0000 L CNN
F 2 "myCapacitors:C_Rect_L13_W5_P10" H 8488 5350 50  0001 C CNN
F 3 "" H 8450 5500 50  0000 C CNN
	1    8450 5500
	1    0    0    -1  
$EndComp
$Comp
L C C6
U 1 1 5832698F
P 8650 4700
F 0 "C6" V 8550 4800 50  0000 L CNN
F 1 "100nF" V 8750 4450 50  0000 L CNN
F 2 "myCapacitors:C_Rect_L13_W5_P10" H 8688 4550 50  0001 C CNN
F 3 "" H 8650 4700 50  0000 C CNN
	1    8650 4700
	0    1    1    0   
$EndComp
$Comp
L R R3
U 1 1 583269A1
P 7700 5200
F 0 "R3" V 7780 5200 50  0000 C CNN
F 1 "10K" V 7700 5200 50  0000 C CNN
F 2 "Resistors_ThroughHole:Resistor_Horizontal_RM10mm" V 7630 5200 50  0001 C CNN
F 3 "" H 7700 5200 50  0000 C CNN
	1    7700 5200
	0    1    1    0   
$EndComp
$Comp
L TL072 U1
U 1 1 583269A7
P 7050 5300
F 0 "U1" H 7000 5500 50  0000 L CNN
F 1 "LM4562" H 6550 5300 50  0000 L CNN
F 2 "Housings_DIP:DIP-8_W7.62mm_LongPads" H 7050 5300 50  0001 C CNN
F 3 "" H 7050 5300 50  0000 C CNN
	1    7050 5300
	1    0    0    -1  
$EndComp
$Comp
L TL072 U1
U 2 1 583269AD
P 9000 5300
F 0 "U1" H 8950 5500 50  0000 L CNN
F 1 "LM4562" H 8500 5300 50  0000 L CNN
F 2 "Housings_DIP:DIP-8_W7.62mm_LongPads" H 9000 5300 50  0001 C CNN
F 3 "" H 9000 5300 50  0000 C CNN
	2    9000 5300
	1    0    0    -1  
$EndComp
$Comp
L GND #PWR01
U 1 1 583269B3
P 8450 5750
F 0 "#PWR01" H 8450 5500 50  0001 C CNN
F 1 "GND" H 8450 5600 50  0000 C CNN
F 2 "" H 8450 5750 50  0000 C CNN
F 3 "" H 8450 5750 50  0000 C CNN
	1    8450 5750
	1    0    0    -1  
$EndComp
$Comp
L C C1
U 1 1 583269B9
P 6500 5500
F 0 "C1" H 6300 5600 50  0000 L CNN
F 1 "100nF" H 6300 5400 50  0000 L CNN
F 2 "myCapacitors:C_Rect_L13_W5_P10" H 6538 5350 50  0001 C CNN
F 3 "" H 6500 5500 50  0000 C CNN
	1    6500 5500
	1    0    0    -1  
$EndComp
$Comp
L GND #PWR02
U 1 1 583269BF
P 6500 5750
F 0 "#PWR02" H 6500 5500 50  0001 C CNN
F 1 "GND" H 6500 5600 50  0000 C CNN
F 2 "" H 6500 5750 50  0000 C CNN
F 3 "" H 6500 5750 50  0000 C CNN
	1    6500 5750
	1    0    0    -1  
$EndComp
$Comp
L R R5
U 1 1 583286CB
P 9650 5300
F 0 "R5" V 9730 5300 50  0000 C CNN
F 1 "100" V 9650 5300 50  0000 C CNN
F 2 "Resistors_ThroughHole:Resistor_Horizontal_RM10mm" V 9580 5300 50  0001 C CNN
F 3 "" H 9650 5300 50  0000 C CNN
	1    9650 5300
	0    1    1    0   
$EndComp
$Comp
L +12V #PWR03
U 1 1 5975002E
P 6950 5000
F 0 "#PWR03" H 6950 4850 50  0001 C CNN
F 1 "+12V" H 6950 5140 50  0000 C CNN
F 2 "" H 6950 5000 50  0000 C CNN
F 3 "" H 6950 5000 50  0000 C CNN
	1    6950 5000
	1    0    0    -1  
$EndComp
$Comp
L -12VA #PWR04
U 1 1 59750393
P 6950 5600
F 0 "#PWR04" H 6950 5450 50  0001 C CNN
F 1 "-12VA" H 6950 5740 50  0000 C CNN
F 2 "" H 6950 5600 50  0000 C CNN
F 3 "" H 6950 5600 50  0000 C CNN
	1    6950 5600
	-1   0    0    1   
$EndComp
$Comp
L -12VA #PWR05
U 1 1 59750BDB
P 8900 5600
F 0 "#PWR05" H 8900 5450 50  0001 C CNN
F 1 "-12VA" H 8900 5740 50  0000 C CNN
F 2 "" H 8900 5600 50  0000 C CNN
F 3 "" H 8900 5600 50  0000 C CNN
	1    8900 5600
	-1   0    0    1   
$EndComp
$Comp
L +12V #PWR06
U 1 1 5975143D
P 8900 5000
F 0 "#PWR06" H 8900 4850 50  0001 C CNN
F 1 "+12V" H 8900 5140 50  0000 C CNN
F 2 "" H 8900 5000 50  0000 C CNN
F 3 "" H 8900 5000 50  0000 C CNN
	1    8900 5000
	1    0    0    -1  
$EndComp
$Comp
L GND #PWR07
U 1 1 5FB277D0
P 6950 6650
F 0 "#PWR07" H 6950 6400 50  0001 C CNN
F 1 "GND" H 6950 6500 50  0000 C CNN
F 2 "" H 6950 6650 50  0000 C CNN
F 3 "" H 6950 6650 50  0000 C CNN
	1    6950 6650
	1    0    0    -1  
$EndComp
$Comp
L +12V #PWR08
U 1 1 5FB2787A
P 7550 6400
F 0 "#PWR08" H 7550 6250 50  0001 C CNN
F 1 "+12V" H 7550 6540 50  0000 C CNN
F 2 "" H 7550 6400 50  0000 C CNN
F 3 "" H 7550 6400 50  0000 C CNN
	1    7550 6400
	1    0    0    -1  
$EndComp
$Comp
L -12VA #PWR09
U 1 1 5FB27921
P 7350 6300
F 0 "#PWR09" H 7350 6150 50  0001 C CNN
F 1 "-12VA" H 7350 6440 50  0000 C CNN
F 2 "" H 7350 6300 50  0000 C CNN
F 3 "" H 7350 6300 50  0000 C CNN
	1    7350 6300
	1    0    0    -1  
$EndComp
$Comp
L C C7
U 1 1 5FB27408
P 8900 6600
F 0 "C7" H 8700 6700 50  0000 L CNN
F 1 "100nF" H 8700 6500 50  0000 L CNN
F 2 "Capacitors_ThroughHole:C_Rect_L7_W2_P5" H 8938 6450 50  0001 C CNN
F 3 "" H 8900 6600 50  0000 C CNN
	1    8900 6600
	1    0    0    -1  
$EndComp
$Comp
L +12V #PWR010
U 1 1 5FB275E8
P 8900 6350
F 0 "#PWR010" H 8900 6200 50  0001 C CNN
F 1 "+12V" H 8900 6490 50  0000 C CNN
F 2 "" H 8900 6350 50  0000 C CNN
F 3 "" H 8900 6350 50  0000 C CNN
	1    8900 6350
	1    0    0    -1  
$EndComp
Text Notes 5500 6600 0    60   ~ 0
FC=93.5Hz, R=12K, C=100nF\nFC=112Hz, R=10K, C=100nF\nFc=510Hz, R=10K, C=22nF\nFc=5115Hz, R=10K, C=2.2nF
$Comp
L C C8
U 1 1 600EAF86
P 9150 6600
F 0 "C8" H 8950 6700 50  0000 L CNN
F 1 "100nF" H 8950 6500 50  0000 L CNN
F 2 "Capacitors_ThroughHole:C_Rect_L7_W2_P5" H 9188 6450 50  0001 C CNN
F 3 "" H 9150 6600 50  0000 C CNN
	1    9150 6600
	1    0    0    -1  
$EndComp
$Comp
L -12VA #PWR011
U 1 1 600EAFCC
P 9150 6350
F 0 "#PWR011" H 9150 6200 50  0001 C CNN
F 1 "-12VA" H 9150 6490 50  0000 C CNN
F 2 "" H 9150 6350 50  0000 C CNN
F 3 "" H 9150 6350 50  0000 C CNN
	1    9150 6350
	1    0    0    -1  
$EndComp
$Comp
L GND #PWR012
U 1 1 600EB065
P 8900 6850
F 0 "#PWR012" H 8900 6600 50  0001 C CNN
F 1 "GND" H 8900 6700 50  0000 C CNN
F 2 "" H 8900 6850 50  0000 C CNN
F 3 "" H 8900 6850 50  0000 C CNN
	1    8900 6850
	1    0    0    -1  
$EndComp
$Comp
L GND #PWR013
U 1 1 600EB0A0
P 9150 6850
F 0 "#PWR013" H 9150 6600 50  0001 C CNN
F 1 "GND" H 9150 6700 50  0000 C CNN
F 2 "" H 9150 6850 50  0000 C CNN
F 3 "" H 9150 6850 50  0000 C CNN
	1    9150 6850
	1    0    0    -1  
$EndComp
$Comp
L CP C10
U 1 1 600EBE23
P 8500 6600
F 0 "C10" H 8525 6700 50  0000 L CNN
F 1 "10µF" H 8500 6500 50  0000 L CNN
F 2 "Capacitors_ThroughHole:C_Radial_D5_L11_P2" H 8538 6450 50  0001 C CNN
F 3 "" H 8500 6600 50  0000 C CNN
	1    8500 6600
	1    0    0    1   
$EndComp
$Comp
L CP C9
U 1 1 600EBED3
P 8250 6600
F 0 "C9" H 8275 6700 50  0000 L CNN
F 1 "10µF" H 8275 6500 50  0000 L CNN
F 2 "Capacitors_ThroughHole:C_Radial_D5_L11_P2" H 8288 6450 50  0001 C CNN
F 3 "" H 8250 6600 50  0000 C CNN
	1    8250 6600
	1    0    0    -1  
$EndComp
$Comp
L +12V #PWR014
U 1 1 600EBF3B
P 8250 6350
F 0 "#PWR014" H 8250 6200 50  0001 C CNN
F 1 "+12V" H 8250 6490 50  0000 C CNN
F 2 "" H 8250 6350 50  0000 C CNN
F 3 "" H 8250 6350 50  0000 C CNN
	1    8250 6350
	1    0    0    -1  
$EndComp
$Comp
L -12VA #PWR015
U 1 1 600EBF7C
P 8500 6350
F 0 "#PWR015" H 8500 6200 50  0001 C CNN
F 1 "-12VA" H 8500 6490 50  0000 C CNN
F 2 "" H 8500 6350 50  0000 C CNN
F 3 "" H 8500 6350 50  0000 C CNN
	1    8500 6350
	1    0    0    -1  
$EndComp
$Comp
L GND #PWR016
U 1 1 600EC387
P 8250 6850
F 0 "#PWR016" H 8250 6600 50  0001 C CNN
F 1 "GND" H 8250 6700 50  0000 C CNN
F 2 "" H 8250 6850 50  0000 C CNN
F 3 "" H 8250 6850 50  0000 C CNN
	1    8250 6850
	1    0    0    -1  
$EndComp
$Comp
L GND #PWR017
U 1 1 600EC3C8
P 8500 6850
F 0 "#PWR017" H 8500 6600 50  0001 C CNN
F 1 "GND" H 8500 6700 50  0000 C CNN
F 2 "" H 8500 6850 50  0000 C CNN
F 3 "" H 8500 6850 50  0000 C CNN
	1    8500 6850
	1    0    0    -1  
$EndComp
$Comp
L C C12
U 1 1 605C5F88
P 6750 2800
F 0 "C12" V 6650 2900 50  0000 L CNN
F 1 "100nF" V 6650 2550 50  0000 L CNN
F 2 "myCapacitors:C_Rect_L13_W5_P10" H 6788 2650 50  0001 C CNN
F 3 "" H 6750 2800 50  0000 C CNN
	1    6750 2800
	0    1    1    0   
$EndComp
$Comp
L R R7
U 1 1 605C5F8E
P 6250 3500
F 0 "R7" V 6330 3500 50  0000 C CNN
F 1 "10K" V 6250 3500 50  0000 C CNN
F 2 "Resistors_ThroughHole:Resistor_Horizontal_RM10mm" V 6180 3500 50  0001 C CNN
F 3 "" H 6250 3500 50  0000 C CNN
	1    6250 3500
	0    1    1    0   
$EndComp
$Comp
L C C13
U 1 1 605C5F94
P 6750 3000
F 0 "C13" V 6650 3100 50  0000 L CNN
F 1 "100nF" V 6850 2750 50  0000 L CNN
F 2 "myCapacitors:C_Rect_L13_W5_P10" H 6788 2850 50  0001 C CNN
F 3 "" H 6750 3000 50  0000 C CNN
	1    6750 3000
	0    1    1    0   
$EndComp
$Comp
L R R6
U 1 1 605C5F9A
P 5750 3500
F 0 "R6" V 5830 3500 50  0000 C CNN
F 1 "10K" V 5750 3500 50  0000 C CNN
F 2 "Resistors_ThroughHole:Resistor_Horizontal_RM10mm" V 5680 3500 50  0001 C CNN
F 3 "" H 5750 3500 50  0000 C CNN
	1    5750 3500
	0    1    1    0   
$EndComp
$Comp
L C C15
U 1 1 605C5FA0
P 8650 2800
F 0 "C15" V 8550 2900 50  0000 L CNN
F 1 "100nF" V 8550 2550 50  0000 L CNN
F 2 "myCapacitors:C_Rect_L13_W5_P10" H 8688 2650 50  0001 C CNN
F 3 "" H 8650 2800 50  0000 C CNN
	1    8650 2800
	0    1    1    0   
$EndComp
$Comp
L R R9
U 1 1 605C5FA6
P 8200 3500
F 0 "R9" V 8280 3500 50  0000 C CNN
F 1 "10K" V 8200 3500 50  0000 C CNN
F 2 "Resistors_ThroughHole:Resistor_Horizontal_RM10mm" V 8130 3500 50  0001 C CNN
F 3 "" H 8200 3500 50  0000 C CNN
	1    8200 3500
	0    1    1    0   
$EndComp
$Comp
L C C14
U 1 1 605C5FAC
P 8450 3800
F 0 "C14" H 8250 3900 50  0000 L CNN
F 1 "100nF" H 8250 3700 50  0000 L CNN
F 2 "myCapacitors:C_Rect_L13_W5_P10" H 8488 3650 50  0001 C CNN
F 3 "" H 8450 3800 50  0000 C CNN
	1    8450 3800
	1    0    0    -1  
$EndComp
$Comp
L C C16
U 1 1 605C5FB2
P 8650 3000
F 0 "C16" V 8550 3100 50  0000 L CNN
F 1 "100nF" V 8750 2750 50  0000 L CNN
F 2 "myCapacitors:C_Rect_L13_W5_P10" H 8688 2850 50  0001 C CNN
F 3 "" H 8650 3000 50  0000 C CNN
	1    8650 3000
	0    1    1    0   
$EndComp
$Comp
L R R8
U 1 1 605C5FB8
P 7700 3500
F 0 "R8" V 7780 3500 50  0000 C CNN
F 1 "10K" V 7700 3500 50  0000 C CNN
F 2 "Resistors_ThroughHole:Resistor_Horizontal_RM10mm" V 7630 3500 50  0001 C CNN
F 3 "" H 7700 3500 50  0000 C CNN
	1    7700 3500
	0    1    1    0   
$EndComp
$Comp
L TL072 U2
U 1 1 605C5FBE
P 7050 3600
F 0 "U2" H 7000 3800 50  0000 L CNN
F 1 "LM4562" H 6550 3600 50  0000 L CNN
F 2 "Housings_DIP:DIP-8_W7.62mm_LongPads" H 7050 3600 50  0001 C CNN
F 3 "" H 7050 3600 50  0000 C CNN
	1    7050 3600
	1    0    0    -1  
$EndComp
$Comp
L TL072 U2
U 2 1 605C5FC4
P 9000 3600
F 0 "U2" H 8950 3800 50  0000 L CNN
F 1 "LM4562" H 8500 3600 50  0000 L CNN
F 2 "Housings_DIP:DIP-8_W7.62mm_LongPads" H 9000 3600 50  0001 C CNN
F 3 "" H 9000 3600 50  0000 C CNN
	2    9000 3600
	1    0    0    -1  
$EndComp
$Comp
L GND #PWR018
U 1 1 605C5FCA
P 8450 4050
F 0 "#PWR018" H 8450 3800 50  0001 C CNN
F 1 "GND" H 8450 3900 50  0000 C CNN
F 2 "" H 8450 4050 50  0000 C CNN
F 3 "" H 8450 4050 50  0000 C CNN
	1    8450 4050
	1    0    0    -1  
$EndComp
$Comp
L C C11
U 1 1 605C5FD0
P 6500 3800
F 0 "C11" H 6300 3900 50  0000 L CNN
F 1 "100nF" H 6300 3700 50  0000 L CNN
F 2 "myCapacitors:C_Rect_L13_W5_P10" H 6538 3650 50  0001 C CNN
F 3 "" H 6500 3800 50  0000 C CNN
	1    6500 3800
	1    0    0    -1  
$EndComp
$Comp
L GND #PWR019
U 1 1 605C5FD6
P 6500 4050
F 0 "#PWR019" H 6500 3800 50  0001 C CNN
F 1 "GND" H 6500 3900 50  0000 C CNN
F 2 "" H 6500 4050 50  0000 C CNN
F 3 "" H 6500 4050 50  0000 C CNN
	1    6500 4050
	1    0    0    -1  
$EndComp
$Comp
L R R10
U 1 1 605C5FDC
P 9650 3600
F 0 "R10" V 9730 3600 50  0000 C CNN
F 1 "100" V 9650 3600 50  0000 C CNN
F 2 "Resistors_ThroughHole:Resistor_Horizontal_RM10mm" V 9580 3600 50  0001 C CNN
F 3 "" H 9650 3600 50  0000 C CNN
	1    9650 3600
	0    1    1    0   
$EndComp
$Comp
L +12V #PWR020
U 1 1 605C5FE2
P 6950 3300
F 0 "#PWR020" H 6950 3150 50  0001 C CNN
F 1 "+12V" H 6950 3440 50  0000 C CNN
F 2 "" H 6950 3300 50  0000 C CNN
F 3 "" H 6950 3300 50  0000 C CNN
	1    6950 3300
	1    0    0    -1  
$EndComp
$Comp
L -12VA #PWR021
U 1 1 605C5FE8
P 6950 3900
F 0 "#PWR021" H 6950 3750 50  0001 C CNN
F 1 "-12VA" H 6950 4040 50  0000 C CNN
F 2 "" H 6950 3900 50  0000 C CNN
F 3 "" H 6950 3900 50  0000 C CNN
	1    6950 3900
	-1   0    0    1   
$EndComp
$Comp
L -12VA #PWR022
U 1 1 605C5FEE
P 8900 3900
F 0 "#PWR022" H 8900 3750 50  0001 C CNN
F 1 "-12VA" H 8900 4040 50  0000 C CNN
F 2 "" H 8900 3900 50  0000 C CNN
F 3 "" H 8900 3900 50  0000 C CNN
	1    8900 3900
	-1   0    0    1   
$EndComp
$Comp
L +12V #PWR023
U 1 1 605C5FF4
P 8900 3300
F 0 "#PWR023" H 8900 3150 50  0001 C CNN
F 1 "+12V" H 8900 3440 50  0000 C CNN
F 2 "" H 8900 3300 50  0000 C CNN
F 3 "" H 8900 3300 50  0000 C CNN
	1    8900 3300
	1    0    0    -1  
$EndComp
Wire Wire Line
	9400 4100 8600 4100
Wire Wire Line
	9400 3000 9400 4100
Wire Wire Line
	9800 3600 10000 3600
Wire Wire Line
	5400 3500 5600 3500
Connection ~ 7450 3500
Wire Wire Line
	7550 3500 7450 3500
Wire Wire Line
	7350 3600 7450 3600
Connection ~ 7950 3500
Wire Wire Line
	7950 3000 7950 3500
Connection ~ 6450 3000
Wire Wire Line
	6450 2800 6450 3000
Wire Wire Line
	6600 2800 6450 2800
Wire Wire Line
	7050 2800 7050 3000
Wire Wire Line
	6900 2800 7050 2800
Connection ~ 6000 3500
Wire Wire Line
	6000 3000 6000 3500
Wire Wire Line
	6000 3000 6600 3000
Wire Wire Line
	7950 3000 8500 3000
Wire Wire Line
	7850 3500 8050 3500
Wire Wire Line
	5900 3500 6100 3500
Wire Wire Line
	8450 3950 8450 4050
Wire Wire Line
	9300 3600 9500 3600
Connection ~ 8400 3000
Wire Wire Line
	8400 2800 8400 3000
Wire Wire Line
	8500 2800 8400 2800
Connection ~ 8900 3000
Wire Wire Line
	8900 2800 8900 3000
Wire Wire Line
	8800 2800 8900 2800
Wire Wire Line
	8350 3500 8700 3500
Wire Wire Line
	8450 3500 8450 3650
Connection ~ 8450 3500
Wire Wire Line
	8800 3000 9400 3000
Wire Wire Line
	8600 4100 8600 3700
Wire Wire Line
	8600 3700 8700 3700
Connection ~ 9400 3600
Connection ~ 7050 3000
Wire Wire Line
	6400 3500 6750 3500
Wire Wire Line
	6500 3500 6500 3650
Connection ~ 6500 3500
Wire Wire Line
	6900 3000 7450 3000
Wire Wire Line
	7450 3000 7450 4100
Wire Wire Line
	7450 4100 6650 4100
Wire Wire Line
	6650 4100 6650 3700
Wire Wire Line
	6650 3700 6750 3700
Connection ~ 7450 3600
Wire Wire Line
	6500 4050 6500 3950
Wire Wire Line
	8250 6450 8250 6350
Wire Wire Line
	8250 6850 8250 6750
Wire Wire Line
	8500 6750 8500 6850
Wire Wire Line
	8500 6450 8500 6350
Wire Wire Line
	9150 6850 9150 6750
Wire Wire Line
	9150 6350 9150 6450
Wire Wire Line
	8900 6750 8900 6850
Wire Wire Line
	8900 6350 8900 6450
Wire Wire Line
	6950 6450 7450 6450
Wire Wire Line
	7350 6550 7350 6300
Wire Wire Line
	7550 6400 7550 6550
Wire Wire Line
	7450 6450 7450 6550
Wire Wire Line
	6950 6650 6950 6450
Wire Wire Line
	9400 5800 8600 5800
Wire Wire Line
	9400 4700 9400 5800
Wire Wire Line
	9800 5300 10000 5300
Wire Wire Line
	5450 5200 5600 5200
Connection ~ 7450 5200
Wire Wire Line
	7550 5200 7450 5200
Wire Wire Line
	7350 5300 7450 5300
Connection ~ 7950 5200
Wire Wire Line
	7950 4700 7950 5200
Connection ~ 6450 4700
Wire Wire Line
	6450 4500 6450 4700
Wire Wire Line
	6600 4500 6450 4500
Wire Wire Line
	7050 4500 7050 4700
Wire Wire Line
	6900 4500 7050 4500
Connection ~ 6000 5200
Wire Wire Line
	6000 4700 6000 5200
Wire Wire Line
	6000 4700 6600 4700
Wire Wire Line
	7950 4700 8500 4700
Wire Wire Line
	7850 5200 8050 5200
Wire Wire Line
	5900 5200 6100 5200
Wire Wire Line
	8450 5650 8450 5750
Wire Wire Line
	9300 5300 9500 5300
Connection ~ 8400 4700
Wire Wire Line
	8400 4500 8400 4700
Wire Wire Line
	8500 4500 8400 4500
Connection ~ 8900 4700
Wire Wire Line
	8900 4500 8900 4700
Wire Wire Line
	8800 4500 8900 4500
Wire Wire Line
	8350 5200 8700 5200
Wire Wire Line
	8450 5200 8450 5350
Connection ~ 8450 5200
Wire Wire Line
	8800 4700 9400 4700
Wire Wire Line
	8600 5800 8600 5400
Wire Wire Line
	8600 5400 8700 5400
Connection ~ 9400 5300
Connection ~ 7050 4700
Wire Wire Line
	6400 5200 6750 5200
Wire Wire Line
	6500 5200 6500 5350
Connection ~ 6500 5200
Wire Wire Line
	6900 4700 7450 4700
Wire Wire Line
	7450 4700 7450 5800
Wire Wire Line
	7450 5800 6650 5800
Wire Wire Line
	6650 5800 6650 5400
Wire Wire Line
	6650 5400 6750 5400
Connection ~ 7450 5300
Wire Wire Line
	6500 5750 6500 5650
$Comp
L C C17
U 1 1 605C6694
P 9550 6600
F 0 "C17" H 9350 6700 50  0000 L CNN
F 1 "100nF" H 9350 6500 50  0000 L CNN
F 2 "Capacitors_ThroughHole:C_Rect_L7_W2_P5" H 9588 6450 50  0001 C CNN
F 3 "" H 9550 6600 50  0000 C CNN
	1    9550 6600
	1    0    0    -1  
$EndComp
$Comp
L +12V #PWR024
U 1 1 605C669A
P 9550 6350
F 0 "#PWR024" H 9550 6200 50  0001 C CNN
F 1 "+12V" H 9550 6490 50  0000 C CNN
F 2 "" H 9550 6350 50  0000 C CNN
F 3 "" H 9550 6350 50  0000 C CNN
	1    9550 6350
	1    0    0    -1  
$EndComp
$Comp
L GND #PWR025
U 1 1 605C66A0
P 9550 6850
F 0 "#PWR025" H 9550 6600 50  0001 C CNN
F 1 "GND" H 9550 6700 50  0000 C CNN
F 2 "" H 9550 6850 50  0000 C CNN
F 3 "" H 9550 6850 50  0000 C CNN
	1    9550 6850
	1    0    0    -1  
$EndComp
Wire Wire Line
	9550 6750 9550 6850
Wire Wire Line
	9550 6350 9550 6450
$Comp
L C C18
U 1 1 605C6711
P 9800 6600
F 0 "C18" H 9600 6700 50  0000 L CNN
F 1 "100nF" H 9600 6500 50  0000 L CNN
F 2 "Capacitors_ThroughHole:C_Rect_L7_W2_P5" H 9838 6450 50  0001 C CNN
F 3 "" H 9800 6600 50  0000 C CNN
	1    9800 6600
	1    0    0    -1  
$EndComp
$Comp
L -12VA #PWR026
U 1 1 605C6717
P 9800 6350
F 0 "#PWR026" H 9800 6200 50  0001 C CNN
F 1 "-12VA" H 9800 6490 50  0000 C CNN
F 2 "" H 9800 6350 50  0000 C CNN
F 3 "" H 9800 6350 50  0000 C CNN
	1    9800 6350
	1    0    0    -1  
$EndComp
$Comp
L GND #PWR027
U 1 1 605C671D
P 9800 6850
F 0 "#PWR027" H 9800 6600 50  0001 C CNN
F 1 "GND" H 9800 6700 50  0000 C CNN
F 2 "" H 9800 6850 50  0000 C CNN
F 3 "" H 9800 6850 50  0000 C CNN
	1    9800 6850
	1    0    0    -1  
$EndComp
Wire Wire Line
	9800 6850 9800 6750
Wire Wire Line
	9800 6350 9800 6450
$Comp
L CONN_01X02 P1
U 1 1 605DB171
P 5100 4350
F 0 "P1" H 5100 4500 50  0000 C CNN
F 1 "INPUT" V 5200 4350 50  0000 C CNN
F 2 "Pin_Headers:Pin_Header_Angled_1x02" H 5100 4350 50  0001 C CNN
F 3 "" H 5100 4350 50  0000 C CNN
	1    5100 4350
	-1   0    0    1   
$EndComp
$Comp
L CONN_01X02 P3
U 1 1 605DB355
P 10300 4350
F 0 "P3" H 10300 4500 50  0000 C CNN
F 1 "OUTPUT" V 10400 4350 50  0000 C CNN
F 2 "Pin_Headers:Pin_Header_Angled_1x02" H 10300 4350 50  0001 C CNN
F 3 "" H 10300 4350 50  0000 C CNN
	1    10300 4350
	1    0    0    -1  
$EndComp
Wire Wire Line
	5400 4300 5300 4300
Wire Wire Line
	5400 3400 5400 4300
Wire Wire Line
	5300 4400 5450 4400
Wire Wire Line
	5450 4400 5450 5300
Wire Wire Line
	10000 4400 10000 5400
Wire Wire Line
	10000 4400 10100 4400
Wire Wire Line
	10000 4300 10100 4300
Wire Wire Line
	10000 3500 10000 4300
$Comp
L CONN_01X03 P2
U 1 1 605DB88E
P 7450 6750
F 0 "P2" H 7450 6950 50  0000 C CNN
F 1 "POWER" V 7550 6750 50  0000 C CNN
F 2 "Pin_Headers:Pin_Header_Angled_1x03" H 7450 6750 50  0001 C CNN
F 3 "" H 7450 6750 50  0000 C CNN
	1    7450 6750
	0    1    1    0   
$EndComp
Text GLabel 5400 3400 1    60   Input ~ 0
LEFT-IN
Connection ~ 5400 3500
Text GLabel 5450 5300 3    60   Input ~ 0
RIGHT-IN
Connection ~ 5450 5200
Text GLabel 10000 5400 3    60   Input ~ 0
RIGHT-OUT
Connection ~ 10000 5300
Text GLabel 10000 3500 1    60   Input ~ 0
LEFT-OUT
Connection ~ 10000 3600
$EndSCHEMATC
