EESchema Schematic File Version 2
LIBS:modular-main-board-rescue
LIBS:power
LIBS:device
LIBS:transistors
LIBS:conn
LIBS:linear
LIBS:regul
LIBS:74xx
LIBS:cmos4000
LIBS:adc-dac
LIBS:memory
LIBS:xilinx
LIBS:microcontrollers
LIBS:dsp
LIBS:microchip
LIBS:analog_switches
LIBS:motorola
LIBS:texas
LIBS:intel
LIBS:audio
LIBS:interface
LIBS:digital-audio
LIBS:philips
LIBS:display
LIBS:cypress
LIBS:siliconi
LIBS:opto
LIBS:atmel
LIBS:contrib
LIBS:valves
LIBS:my-misc-modules
LIBS:modular-main-board-cache
EELAYER 25 0
EELAYER END
$Descr A4 8268 11693 portrait
encoding utf-8
Sheet 1 1
Title ""
Date ""
Rev ""
Comp ""
Comment1 ""
Comment2 ""
Comment3 ""
Comment4 ""
$EndDescr
$Comp
L +12V #PWR01
U 1 1 600EE8CD
P 3300 1650
F 0 "#PWR01" H 3300 1500 50  0001 C CNN
F 1 "+12V" H 3300 1790 50  0000 C CNN
F 2 "" H 3300 1650 50  0000 C CNN
F 3 "" H 3300 1650 50  0000 C CNN
	1    3300 1650
	1    0    0    -1  
$EndComp
$Comp
L GND #PWR02
U 1 1 600EF218
P 4000 7150
F 0 "#PWR02" H 4000 6900 50  0001 C CNN
F 1 "GND" H 4000 7000 50  0000 C CNN
F 2 "" H 4000 7150 50  0000 C CNN
F 3 "" H 4000 7150 50  0000 C CNN
	1    4000 7150
	1    0    0    -1  
$EndComp
$Comp
L GND #PWR03
U 1 1 600EF28F
P 4000 5750
F 0 "#PWR03" H 4000 5500 50  0001 C CNN
F 1 "GND" H 4000 5600 50  0000 C CNN
F 2 "" H 4000 5750 50  0000 C CNN
F 3 "" H 4000 5750 50  0000 C CNN
	1    4000 5750
	1    0    0    -1  
$EndComp
$Comp
L GND #PWR04
U 1 1 600EF307
P 4000 2950
F 0 "#PWR04" H 4000 2700 50  0001 C CNN
F 1 "GND" H 4000 2800 50  0000 C CNN
F 2 "" H 4000 2950 50  0000 C CNN
F 3 "" H 4000 2950 50  0000 C CNN
	1    4000 2950
	1    0    0    -1  
$EndComp
$Comp
L GND #PWR05
U 1 1 600F033F
P 5550 5750
F 0 "#PWR05" H 5550 5500 50  0001 C CNN
F 1 "GND" H 5550 5600 50  0000 C CNN
F 2 "" H 5550 5750 50  0000 C CNN
F 3 "" H 5550 5750 50  0000 C CNN
	1    5550 5750
	1    0    0    -1  
$EndComp
$Comp
L GND #PWR06
U 1 1 600F0BC6
P 7050 5500
F 0 "#PWR06" H 7050 5250 50  0001 C CNN
F 1 "GND" H 7050 5350 50  0000 C CNN
F 2 "" H 7050 5500 50  0000 C CNN
F 3 "" H 7050 5500 50  0000 C CNN
	1    7050 5500
	1    0    0    -1  
$EndComp
$Comp
L GND #PWR07
U 1 1 600F0E73
P 7050 2700
F 0 "#PWR07" H 7050 2450 50  0001 C CNN
F 1 "GND" H 7050 2550 50  0000 C CNN
F 2 "" H 7050 2700 50  0000 C CNN
F 3 "" H 7050 2700 50  0000 C CNN
	1    7050 2700
	1    0    0    -1  
$EndComp
$Comp
L TL072 U8
U 1 1 600F176D
P 6000 7200
F 0 "U8" H 5950 7400 50  0000 L CNN
F 1 "LM4562" H 5500 7200 50  0000 L CNN
F 2 "Housings_DIP:DIP-8_W7.62mm_LongPads" H 6000 7200 50  0001 C CNN
F 3 "" H 6000 7200 50  0000 C CNN
	1    6000 7200
	1    0    0    -1  
$EndComp
$Comp
L R R7
U 1 1 600F1774
P 5900 6600
F 0 "R7" V 5980 6600 50  0000 C CNN
F 1 "20K" V 5900 6600 50  0000 C CNN
F 2 "Resistors_ThroughHole:R_Axial_DIN0207_L6.3mm_D2.5mm_P10.16mm_Horizontal" V 5830 6600 50  0001 C CNN
F 3 "" H 5900 6600 50  0000 C CNN
	1    5900 6600
	0    1    1    0   
$EndComp
$Comp
L GND #PWR08
U 1 1 600F177B
P 5600 7400
F 0 "#PWR08" H 5600 7150 50  0001 C CNN
F 1 "GND" H 5600 7250 50  0000 C CNN
F 2 "" H 5600 7400 50  0000 C CNN
F 3 "" H 5600 7400 50  0000 C CNN
	1    5600 7400
	1    0    0    -1  
$EndComp
$Comp
L R R5
U 1 1 600F1781
P 5200 6600
F 0 "R5" V 5280 6600 50  0000 C CNN
F 1 "20K" V 5200 6600 50  0000 C CNN
F 2 "Resistors_ThroughHole:R_Axial_DIN0207_L6.3mm_D2.5mm_P10.16mm_Horizontal" V 5130 6600 50  0001 C CNN
F 3 "" H 5200 6600 50  0000 C CNN
	1    5200 6600
	0    -1   -1   0   
$EndComp
$Comp
L +12V #PWR09
U 1 1 600F1795
P 5900 6900
F 0 "#PWR09" H 5900 6750 50  0001 C CNN
F 1 "+12V" H 5900 7040 50  0000 C CNN
F 2 "" H 5900 6900 50  0000 C CNN
F 3 "" H 5900 6900 50  0000 C CNN
	1    5900 6900
	1    0    0    -1  
$EndComp
$Comp
L -12VA #PWR010
U 1 1 600F179B
P 5900 7500
F 0 "#PWR010" H 5900 7350 50  0001 C CNN
F 1 "-12VA" H 5900 7640 50  0000 C CNN
F 2 "" H 5900 7500 50  0000 C CNN
F 3 "" H 5900 7500 50  0000 C CNN
	1    5900 7500
	-1   0    0    1   
$EndComp
$Comp
L R R6
U 1 1 600F1D4E
P 5200 7100
F 0 "R6" V 5280 7100 50  0000 C CNN
F 1 "20K" V 5200 7100 50  0000 C CNN
F 2 "Resistors_ThroughHole:R_Axial_DIN0207_L6.3mm_D2.5mm_P10.16mm_Horizontal" V 5130 7100 50  0001 C CNN
F 3 "" H 5200 7100 50  0000 C CNN
	1    5200 7100
	0    -1   -1   0   
$EndComp
$Comp
L CONN_01X02 P5
U 1 1 600F1EF1
P 7350 7250
F 0 "P5" H 7350 7400 50  0000 C CNN
F 1 "SUB" V 7450 7250 50  0000 C CNN
F 2 "myConnectors:RCA-mono" H 7350 7250 50  0001 C CNN
F 3 "" H 7350 7250 50  0000 C CNN
	1    7350 7250
	1    0    0    -1  
$EndComp
$Comp
L CONN_01X03 P8
U 1 1 600F33DE
P 1200 4600
F 0 "P8" H 1200 4800 50  0000 C CNN
F 1 "POWER" V 1300 4600 50  0000 C CNN
F 2 "myConnectors:JST-B3P-VH" H 1200 4600 50  0001 C CNN
F 3 "" H 1200 4600 50  0000 C CNN
	1    1200 4600
	-1   0    0    -1  
$EndComp
$Comp
L CP C1
U 1 1 600F33E5
P 1850 4350
F 0 "C1" H 1900 4450 50  0000 L CNN
F 1 "100µF" H 1750 4250 50  0000 L CNN
F 2 "Capacitors_ThroughHole:CP_Radial_D6.3mm_P2.50mm" H 1888 4200 50  0001 C CNN
F 3 "" H 1850 4350 50  0000 C CNN
	1    1850 4350
	1    0    0    -1  
$EndComp
$Comp
L CP C2
U 1 1 600F33F3
P 1850 4850
F 0 "C2" H 1900 4950 50  0000 L CNN
F 1 "100µF" H 1750 4750 50  0000 L CNN
F 2 "Capacitors_ThroughHole:CP_Radial_D6.3mm_P2.50mm" H 1888 4700 50  0001 C CNN
F 3 "" H 1850 4850 50  0000 C CNN
	1    1850 4850
	1    0    0    -1  
$EndComp
$Comp
L GND #PWR011
U 1 1 600F33FA
P 1500 4800
F 0 "#PWR011" H 1500 4550 50  0001 C CNN
F 1 "GND" H 1500 4650 50  0000 C CNN
F 2 "" H 1500 4800 50  0000 C CNN
F 3 "" H 1500 4800 50  0000 C CNN
	1    1500 4800
	1    0    0    -1  
$EndComp
$Comp
L +12V #PWR012
U 1 1 600F341C
P 1550 3950
F 0 "#PWR012" H 1550 3800 50  0001 C CNN
F 1 "+12V" H 1550 4090 50  0000 C CNN
F 2 "" H 1550 3950 50  0000 C CNN
F 3 "" H 1550 3950 50  0000 C CNN
	1    1550 3950
	1    0    0    -1  
$EndComp
$Comp
L -12VA #PWR013
U 1 1 600F3422
P 1600 5250
F 0 "#PWR013" H 1600 5100 50  0001 C CNN
F 1 "-12VA" H 1600 5390 50  0000 C CNN
F 2 "" H 1600 5250 50  0000 C CNN
F 3 "" H 1600 5250 50  0000 C CNN
	1    1600 5250
	-1   0    0    1   
$EndComp
$Comp
L C C5
U 1 1 600F3400
P 2350 4350
F 0 "C5" H 2375 4450 50  0000 L CNN
F 1 "100nF" H 2250 4250 50  0000 L CNN
F 2 "Capacitors_ThroughHole:C_Rect_L7.0mm_W2.0mm_P5.00mm" H 2388 4200 50  0001 C CNN
F 3 "" H 2350 4350 50  0000 C CNN
	1    2350 4350
	1    0    0    -1  
$EndComp
$Comp
L C C6
U 1 1 600F3B41
P 2350 4850
F 0 "C6" H 2375 4950 50  0000 L CNN
F 1 "100nF" H 2250 4750 50  0000 L CNN
F 2 "Capacitors_ThroughHole:C_Rect_L7.0mm_W2.0mm_P5.00mm" H 2388 4700 50  0001 C CNN
F 3 "" H 2350 4850 50  0000 C CNN
	1    2350 4850
	1    0    0    -1  
$EndComp
$Comp
L GND #PWR014
U 1 1 600FFFB4
P 7050 7400
F 0 "#PWR014" H 7050 7150 50  0001 C CNN
F 1 "GND" H 7050 7250 50  0000 C CNN
F 2 "" H 7050 7400 50  0000 C CNN
F 3 "" H 7050 7400 50  0000 C CNN
	1    7050 7400
	1    0    0    -1  
$EndComp
$Comp
L GND #PWR015
U 1 1 60100031
P 7050 6500
F 0 "#PWR015" H 7050 6250 50  0001 C CNN
F 1 "GND" H 7050 6350 50  0000 C CNN
F 2 "" H 7050 6500 50  0000 C CNN
F 3 "" H 7050 6500 50  0000 C CNN
	1    7050 6500
	1    0    0    -1  
$EndComp
$Comp
L GND #PWR016
U 1 1 601A8C89
P 4000 4350
F 0 "#PWR016" H 4000 4100 50  0001 C CNN
F 1 "GND" H 4000 4200 50  0000 C CNN
F 2 "" H 4000 4350 50  0000 C CNN
F 3 "" H 4000 4350 50  0000 C CNN
	1    4000 4350
	1    0    0    -1  
$EndComp
$Comp
L GND #PWR017
U 1 1 601A8C95
P 5550 4350
F 0 "#PWR017" H 5550 4100 50  0001 C CNN
F 1 "GND" H 5550 4200 50  0000 C CNN
F 2 "" H 5550 4350 50  0000 C CNN
F 3 "" H 5550 4350 50  0000 C CNN
	1    5550 4350
	1    0    0    -1  
$EndComp
$Comp
L GND #PWR018
U 1 1 601A8CA1
P 7050 4100
F 0 "#PWR018" H 7050 3850 50  0001 C CNN
F 1 "GND" H 7050 3950 50  0000 C CNN
F 2 "" H 7050 4100 50  0000 C CNN
F 3 "" H 7050 4100 50  0000 C CNN
	1    7050 4100
	1    0    0    -1  
$EndComp
$Comp
L CONN_01X03 P2
U 1 1 605B5362
P 7350 2500
F 0 "P2" H 7350 2700 50  0000 C CNN
F 1 "HIGH" V 7450 2500 50  0000 C CNN
F 2 "myConnectors:RCA-socket" H 7350 2500 50  0001 C CNN
F 3 "" H 7350 2500 50  0000 C CNN
	1    7350 2500
	1    0    0    -1  
$EndComp
$Comp
L CONN_01X03 P3
U 1 1 605B5AEB
P 7350 3900
F 0 "P3" H 7350 4100 50  0000 C CNN
F 1 "MID" V 7450 3900 50  0000 C CNN
F 2 "myConnectors:RCA-socket" H 7350 3900 50  0001 C CNN
F 3 "" H 7350 3900 50  0000 C CNN
	1    7350 3900
	1    0    0    -1  
$EndComp
$Comp
L CONN_01X03 P4
U 1 1 605B5BAA
P 7350 5300
F 0 "P4" H 7350 5500 50  0000 C CNN
F 1 "BASS" V 7450 5300 50  0000 C CNN
F 2 "myConnectors:RCA-socket" H 7350 5300 50  0001 C CNN
F 3 "" H 7350 5300 50  0000 C CNN
	1    7350 5300
	1    0    0    -1  
$EndComp
$Comp
L CONN_01X03 P6
U 1 1 605B5C95
P 7350 6300
F 0 "P6" H 7350 6500 50  0000 C CNN
F 1 "SUBS" V 7450 6300 50  0000 C CNN
F 2 "myConnectors:RCA-socket" H 7350 6300 50  0001 C CNN
F 3 "" H 7350 6300 50  0000 C CNN
	1    7350 6300
	1    0    0    -1  
$EndComp
$Comp
L CP C4
U 1 1 605B7D30
P 2100 4850
F 0 "C4" H 2150 4950 50  0000 L CNN
F 1 "10µF" H 2000 4750 50  0000 L CNN
F 2 "Capacitors_ThroughHole:CP_Radial_D5.0mm_P2.00mm" H 2138 4700 50  0001 C CNN
F 3 "" H 2100 4850 50  0000 C CNN
	1    2100 4850
	1    0    0    -1  
$EndComp
$Comp
L CP C3
U 1 1 605B7F18
P 2100 4350
F 0 "C3" H 2150 4450 50  0000 L CNN
F 1 "10µF" H 2000 4250 50  0000 L CNN
F 2 "Capacitors_ThroughHole:CP_Radial_D5.0mm_P2.00mm" H 2138 4200 50  0001 C CNN
F 3 "" H 2100 4350 50  0000 C CNN
	1    2100 4350
	1    0    0    -1  
$EndComp
$Comp
L stereo-filter-module U2
U 1 1 605C8770
P 4000 2200
F 0 "U2" H 4000 2200 60  0000 C CNN
F 1 "high-pass" H 4000 2300 60  0000 C CNN
F 2 "myModules:stereo-filter-module" H 4000 2200 60  0001 C CNN
F 3 "" H 4000 2200 60  0000 C CNN
	1    4000 2200
	1    0    0    -1  
$EndComp
$Comp
L stereo-filter-module U3
U 1 1 605C8C4B
P 4000 3600
F 0 "U3" H 4000 3600 60  0000 C CNN
F 1 "mid-lpass" H 4000 3700 60  0000 C CNN
F 2 "myModules:stereo-filter-module" H 4000 3600 60  0001 C CNN
F 3 "" H 4000 3600 60  0000 C CNN
	1    4000 3600
	1    0    0    -1  
$EndComp
$Comp
L stereo-filter-module U6
U 1 1 605C8EC1
P 5550 3600
F 0 "U6" H 5550 3600 60  0000 C CNN
F 1 "mid-hpass" H 5550 3700 60  0000 C CNN
F 2 "myModules:stereo-filter-module" H 5550 3600 60  0001 C CNN
F 3 "" H 5550 3600 60  0000 C CNN
	1    5550 3600
	1    0    0    -1  
$EndComp
$Comp
L stereo-filter-module U4
U 1 1 605C95A0
P 4000 5000
F 0 "U4" H 4000 5000 60  0000 C CNN
F 1 "bass-lpass" H 4000 5100 60  0000 C CNN
F 2 "myModules:stereo-filter-module" H 4000 5000 60  0001 C CNN
F 3 "" H 4000 5000 60  0000 C CNN
	1    4000 5000
	1    0    0    -1  
$EndComp
$Comp
L stereo-filter-module U7
U 1 1 605C9724
P 5550 5000
F 0 "U7" H 5550 5000 60  0000 C CNN
F 1 "bass-hpass" H 5550 5100 60  0000 C CNN
F 2 "myModules:stereo-filter-module" H 5550 5000 60  0001 C CNN
F 3 "" H 5550 5000 60  0000 C CNN
	1    5550 5000
	1    0    0    -1  
$EndComp
$Comp
L stereo-filter-module U5
U 1 1 605C9A22
P 4000 6400
F 0 "U5" H 4000 6400 60  0000 C CNN
F 1 "sub-pass" H 4000 6500 60  0000 C CNN
F 2 "myModules:stereo-filter-module" H 4000 6400 60  0001 C CNN
F 3 "" H 4000 6400 60  0000 C CNN
	1    4000 6400
	1    0    0    -1  
$EndComp
$Comp
L -12VA #PWR019
U 1 1 605CC480
P 4700 6900
F 0 "#PWR019" H 4700 6750 50  0001 C CNN
F 1 "-12VA" H 4700 7040 50  0000 C CNN
F 2 "" H 4700 6900 50  0000 C CNN
F 3 "" H 4700 6900 50  0000 C CNN
	1    4700 6900
	-1   0    0    1   
$EndComp
$Comp
L LM4562 U8
U 2 1 612B60C4
P 6000 8600
F 0 "U8" H 6000 8800 50  0000 L CNN
F 1 "LM4562" H 6000 8400 50  0000 L CNN
F 2 "Housings_DIP:DIP-8_W7.62mm_LongPads" H 6000 8600 50  0001 C CNN
F 3 "" H 6000 8600 50  0001 C CNN
	2    6000 8600
	1    0    0    -1  
$EndComp
$Comp
L GND #PWR020
U 1 1 612B62EA
P 5600 8800
F 0 "#PWR020" H 5600 8550 50  0001 C CNN
F 1 "GND" H 5600 8650 50  0000 C CNN
F 2 "" H 5600 8800 50  0000 C CNN
F 3 "" H 5600 8800 50  0000 C CNN
	1    5600 8800
	1    0    0    -1  
$EndComp
$Comp
L +12V #PWR021
U 1 1 612B6517
P 5900 8100
F 0 "#PWR021" H 5900 7950 50  0001 C CNN
F 1 "+12V" H 5900 8240 50  0000 C CNN
F 2 "" H 5900 8100 50  0000 C CNN
F 3 "" H 5900 8100 50  0000 C CNN
	1    5900 8100
	1    0    0    -1  
$EndComp
$Comp
L -12VA #PWR022
U 1 1 612B66A7
P 5900 9000
F 0 "#PWR022" H 5900 8850 50  0001 C CNN
F 1 "-12VA" H 5900 9140 50  0000 C CNN
F 2 "" H 5900 9000 50  0000 C CNN
F 3 "" H 5900 9000 50  0000 C CNN
	1    5900 9000
	-1   0    0    1   
$EndComp
$Comp
L stereo-buffer-module U1
U 1 1 613A0098
P 2400 6400
F 0 "U1" H 2400 6400 60  0000 C CNN
F 1 "stereo-buffer-module" H 2400 6500 60  0000 C CNN
F 2 "myModules:stereo-buffer-module" H 2400 6400 60  0001 C CNN
F 3 "" H 2400 6400 60  0000 C CNN
	1    2400 6400
	-1   0    0    -1  
$EndComp
Wire Wire Line
	3300 1650 3300 6150
Wire Wire Line
	3000 6150 3400 6150
Wire Wire Line
	4700 4750 4600 4750
Wire Wire Line
	4700 6150 4600 6150
Wire Wire Line
	3400 4750 3300 4750
Connection ~ 3300 4750
Wire Wire Line
	4000 7050 4000 7150
Wire Wire Line
	4000 5650 4000 5750
Wire Wire Line
	4000 2950 4000 2850
Wire Wire Line
	3300 1950 3400 1950
Connection ~ 3300 1950
Wire Wire Line
	4600 1950 6250 1950
Connection ~ 4700 4750
Connection ~ 3100 5300
Connection ~ 4700 1950
Wire Wire Line
	6250 4750 6150 4750
Wire Wire Line
	4600 5200 4950 5200
Wire Wire Line
	3300 1750 4850 1750
Wire Wire Line
	4850 4750 4950 4750
Connection ~ 3300 1750
Connection ~ 4850 4750
Wire Wire Line
	5550 5750 5550 5650
Wire Wire Line
	6150 5200 7150 5200
Wire Wire Line
	7050 5500 7050 5300
Wire Wire Line
	7050 5300 7150 5300
Wire Wire Line
	4600 2400 7150 2400
Wire Wire Line
	7050 2700 7050 2500
Wire Wire Line
	7050 2500 7150 2500
Wire Wire Line
	5350 7100 5700 7100
Wire Wire Line
	6050 6600 6400 6600
Wire Wire Line
	6400 6600 6400 7200
Connection ~ 6400 7200
Wire Wire Line
	5350 6600 5750 6600
Connection ~ 5450 6600
Wire Wire Line
	5700 7300 5600 7300
Wire Wire Line
	5600 7300 5600 7400
Connection ~ 5450 7100
Wire Wire Line
	5450 6600 5450 7100
Wire Wire Line
	6250 1950 6250 4750
Wire Wire Line
	4600 6600 5050 6600
Wire Wire Line
	5050 7100 4950 7100
Wire Wire Line
	6300 7200 7150 7200
Wire Wire Line
	1400 4700 1600 4700
Connection ~ 1850 4600
Wire Wire Line
	1850 4100 1850 4200
Connection ~ 1850 4100
Wire Wire Line
	1550 3950 1550 4500
Connection ~ 1500 4600
Wire Wire Line
	1850 5100 1850 5000
Wire Wire Line
	1850 4500 1850 4700
Connection ~ 1850 5100
Wire Wire Line
	1600 4700 1600 5250
Wire Wire Line
	1550 4500 1400 4500
Connection ~ 1550 4100
Connection ~ 1600 5100
Wire Wire Line
	1500 4600 1500 4800
Connection ~ 2100 5100
Connection ~ 2100 4100
Wire Wire Line
	2100 4100 2100 4200
Wire Wire Line
	2100 4500 2100 4700
Wire Wire Line
	2100 5100 2100 5000
Connection ~ 2100 4600
Wire Wire Line
	7050 6500 7050 6300
Wire Wire Line
	7050 6300 7150 6300
Wire Wire Line
	7150 7300 7050 7300
Wire Wire Line
	7050 7300 7050 7400
Wire Wire Line
	4950 6200 7150 6200
Wire Wire Line
	4950 6200 4950 6600
Connection ~ 4950 6600
Wire Wire Line
	4700 1950 4700 6900
Wire Wire Line
	4700 3350 4600 3350
Wire Wire Line
	4000 4250 4000 4350
Connection ~ 4700 3350
Wire Wire Line
	6250 3350 6150 3350
Wire Wire Line
	4600 3800 4950 3800
Wire Wire Line
	4850 3350 4950 3350
Connection ~ 4850 3350
Wire Wire Line
	5550 4350 5550 4250
Wire Wire Line
	6150 3800 7150 3800
Wire Wire Line
	7050 4100 7050 3900
Wire Wire Line
	7050 3900 7150 3900
Wire Wire Line
	4850 1750 4850 4750
Connection ~ 6250 3350
Wire Wire Line
	3400 3350 3300 3350
Connection ~ 3300 3350
Connection ~ 3100 3900
Wire Wire Line
	4800 6400 7150 6400
Wire Wire Line
	2350 4100 2350 4200
Wire Wire Line
	2350 4500 2350 4700
Connection ~ 2350 4600
Wire Wire Line
	2350 5100 2350 5000
Wire Wire Line
	4600 2500 6800 2500
Wire Wire Line
	6800 2500 6800 2600
Wire Wire Line
	6800 2600 7150 2600
Wire Wire Line
	3100 2500 3400 2500
Wire Wire Line
	3100 3900 3400 3900
Wire Wire Line
	4600 3900 4950 3900
Wire Wire Line
	6150 3900 6800 3900
Wire Wire Line
	6800 3900 6800 4000
Wire Wire Line
	6800 4000 7150 4000
Wire Wire Line
	7150 5400 6800 5400
Wire Wire Line
	6800 5300 6800 5400
Wire Wire Line
	6150 5300 6800 5300
Wire Wire Line
	4950 6700 4950 7100
Wire Wire Line
	4600 6700 4950 6700
Wire Wire Line
	4800 6400 4800 6700
Connection ~ 4800 6700
Wire Wire Line
	3100 5300 3400 5300
Wire Wire Line
	4600 5300 4950 5300
Connection ~ 3100 6700
Wire Wire Line
	3100 2500 3100 6700
Wire Wire Line
	3000 6600 3400 6600
Wire Wire Line
	2950 2400 3400 2400
Connection ~ 3200 6600
Wire Wire Line
	3400 3800 3200 3800
Connection ~ 3200 3800
Wire Wire Line
	3200 5200 3400 5200
Connection ~ 3200 5200
Connection ~ 4700 6150
Wire Wire Line
	5600 8500 5600 8800
Wire Wire Line
	5600 8500 5700 8500
Wire Wire Line
	5900 8100 5900 8300
Wire Wire Line
	5900 8900 5900 9000
Wire Wire Line
	5700 8700 5500 8700
Wire Wire Line
	5500 8700 5500 8200
Wire Wire Line
	5500 8200 6400 8200
Wire Wire Line
	6400 8200 6400 8600
Wire Wire Line
	6400 8600 6300 8600
Wire Wire Line
	1550 6700 1550 6900
Wire Wire Line
	1450 6700 1550 6700
$Comp
L CONN_01X03 P1
U 1 1 601AC2F9
P 1250 6700
F 0 "P1" H 1250 6900 50  0000 C CNN
F 1 "INPUT" V 1350 6700 50  0000 C CNN
F 2 "myConnectors:RCA-socket" H 1250 6700 50  0001 C CNN
F 3 "" H 1250 6700 50  0000 C CNN
	1    1250 6700
	-1   0    0    -1  
$EndComp
$Comp
L GND #PWR023
U 1 1 600EE3D8
P 1550 6900
F 0 "#PWR023" H 1550 6650 50  0001 C CNN
F 1 "GND" H 1550 6750 50  0000 C CNN
F 2 "" H 1550 6900 50  0000 C CNN
F 3 "" H 1550 6900 50  0000 C CNN
	1    1550 6900
	1    0    0    -1  
$EndComp
Wire Wire Line
	3000 6700 3400 6700
Wire Wire Line
	3200 2400 3200 6600
Connection ~ 3300 6150
Wire Wire Line
	4700 5700 1700 5700
Wire Wire Line
	1700 5700 1700 6150
Wire Wire Line
	1700 6150 1800 6150
Connection ~ 4700 5700
Wire Wire Line
	1450 6600 1800 6600
Wire Wire Line
	1800 6700 1700 6700
Wire Wire Line
	1700 6700 1700 6900
Wire Wire Line
	1700 6800 1450 6800
$Comp
L GND #PWR024
U 1 1 613A0E68
P 2400 7150
F 0 "#PWR024" H 2400 6900 50  0001 C CNN
F 1 "GND" H 2400 7000 50  0000 C CNN
F 2 "" H 2400 7150 50  0000 C CNN
F 3 "" H 2400 7150 50  0000 C CNN
	1    2400 7150
	1    0    0    -1  
$EndComp
Wire Wire Line
	2400 7050 2400 7150
Wire Wire Line
	1550 4100 2350 4100
Wire Wire Line
	1600 5100 2350 5100
Wire Wire Line
	1400 4600 2350 4600
Text GLabel 1600 6500 1    60   Input ~ 0
RIGHT-IN
Wire Wire Line
	1600 6500 1600 6600
Connection ~ 1600 6600
Text GLabel 1700 6900 3    60   Input ~ 0
LEFT-IN
Connection ~ 1700 6800
Text GLabel 6600 2300 1    60   Input ~ 0
RIGHT-HIGH
Wire Wire Line
	6600 2300 6600 2400
Connection ~ 6600 2400
Text GLabel 6500 2600 3    60   Input ~ 0
LEFT-HIGH
Wire Wire Line
	6500 2600 6500 2500
Connection ~ 6500 2500
Text GLabel 6550 4000 3    60   Input ~ 0
LEFT-MID
Wire Wire Line
	6550 4000 6550 3900
Connection ~ 6550 3900
Text GLabel 6650 3700 1    60   Input ~ 0
RIGHT-MID
Wire Wire Line
	6650 3700 6650 3800
Connection ~ 6650 3800
Text GLabel 6700 5100 1    60   Input ~ 0
RIGHT-BASS
Wire Wire Line
	6700 5100 6700 5200
Connection ~ 6700 5200
Text GLabel 6550 5400 3    60   Input ~ 0
LEFT-BASS
Wire Wire Line
	6550 5400 6550 5300
Connection ~ 6550 5300
Text GLabel 6550 6500 3    60   Input ~ 0
LEFT-SUB
Wire Wire Line
	6550 6500 6550 6400
Connection ~ 6550 6400
Text GLabel 6700 6100 1    60   Input ~ 0
RIGHT-SUB
Wire Wire Line
	6700 6100 6700 6200
Connection ~ 6700 6200
Text GLabel 6700 7100 1    60   Input ~ 0
SUB
Wire Wire Line
	6700 7100 6700 7200
Connection ~ 6700 7200
Text GLabel 2950 2400 0    60   Input ~ 0
RIGHT
Connection ~ 3200 2400
Text GLabel 2950 2550 0    60   Input ~ 0
LEFT
Wire Wire Line
	2950 2550 3100 2550
Connection ~ 3100 2550
$EndSCHEMATC
